nombre,usuario,contraseña,ciudad,email
Ethan Bolton,Q9ph7y,YyrWg,Houston,Ethan_Bolton2729@bretoux.com
Rocco Phillips,VxXeLw,jQicZ,Moreno Valley,Rocco_Phillips9618@twipet.com
Maya Rust,PeVTT3,K750V,Orlando,Maya_Rust5944@deons.tech
Dani Randall,7ZxxEN,GRYW8,Wien,Dani_Randall7378@dionrab.com
Alan Rees,DZdAB3,NhP5O,San Antonio,Alan_Rees9695@gmail.com
Jack Hammond,ULtOLQ,PC5hL,New York,Jack_Hammond1939@sheye.org
Sonya Janes,Cizh6f,jQyR2,Madison,Sonya_Janes4228@fuliss.net
Danielle Hunt,uueA2J,N7FWC,Fremont,Danielle_Hunt636@atink.com
Keira Gosling,U3l3Xp,J7W9X,Worcester,Keira_Gosling5070@womeona.net
John Chapman,BptUJZ,mj0Jh,Dallas,John_Chapman7521@twace.org
Mabel May,poBaWE,UDgJ0,San Jose,Mabel_May5870@hourpy.biz
Karla Butler,HJzRKe,8Uhfm,Washington,Karla_Butler6096@zorer.org
Ron Rose,19Pcpk,YRnPw,Laredo,Ron_Rose2570@ubusive.com
Jayden Purvis,94DgeK,CFyjs,Los Angeles,Jayden_Purvis9074@twipet.com
Fred Sheldon,8YFsci,b9hOM,Denver,Fred_Sheldon2851@tonsy.org
William Nurton,1ZmLWz,NW0Bp,Tulsa,William_Nurton7307@ovock.tech
Julianna Gray,WuL0hV,mg75z,Venice,Julianna_Gray5348@gmail.com
Kamila Ulyatt,aGGrlj,2Wmhv,Berna,Kamila_Ulyatt8033@twipet.com
Julius Jefferson,zs0LUD,9oY4X,Louisville,Julius_Jefferson3115@muall.tech
Manuel Reid,gJWpuK,Te4y1,Ontario,Manuel_Reid1619@iatim.tech
Leroy Scott,hg0pFD,GDNpe,Venice,Leroy_Scott3046@guentu.biz
Rae Stubbs,vxUPFi,hraPH,Worcester,Rae_Stubbs2344@jiman.org
Cara Shields,G3BLbF,Plhfy,Tulsa,Cara_Shields6121@bulaffy.com
Aiden Boden,1F5Xc8,S8py9,Chicago,Aiden_Boden9757@supunk.biz
Mike James,xbjuUr,FnhDs,Bellevue,Mike_James8075@ubusive.com
Miley Raven,ZYOTn4,sNvRP,Henderson,Miley_Raven5622@sveldo.biz
Joseph Vallins,HF5dhX,zt45j,San Antonio,Joseph_Vallins8610@corti.com
Lorraine Alcroft,8liSJg,0giaz,Murfreesboro,Lorraine_Alcroft9856@bungar.biz
Phoebe Kidd,MfJh2A,Ykt9I,Louisville,Phoebe_Kidd9066@naiker.biz
Julian Ross,JMMr7i,E687A,Albuquerque,Julian_Ross9233@extex.org
Christine Hamilton,R2PaFk,Ksahr,Salt Lake City,Christine_Hamilton6552@iatim.tech
Kurt Brown,wsMGO7,El4DY,Seattle,Kurt_Brown8088@extex.org
Matt Yarwood,g9dKDm,C9hBX,Glendale,Matt_Yarwood3162@ubusive.com
Hazel Randall,N6L6C5,KzKhv,Zurich,Hazel_Randall6147@grannar.com
Maddison Gallacher,G8TNsF,KHr6r,Houston,Maddison_Gallacher5945@deavo.com
Nicole Adams,vhz4dE,TV2FQ,Dallas,Nicole_Adams9254@irrepsy.com
Mandy Addison,ODGUf0,ByU8c,Wien,Mandy_Addison5827@typill.biz
Luke Vince,vqQ2m4,A1zA4,Milano,Luke_Vince7757@irrepsy.com
Ember Allington,eRz6Qq,yGIF0,Garland,Ember_Allington3013@jiman.org
Wade Price,rddnlJ,GcpzH,Washington,Wade_Price5603@cispeto.com
William Mccormick,UIkYe9,cwdzK,Worcester,William_Mccormick5322@bauros.biz
Brad Harrison,vFhb3I,tdl0r,Colorado Springs,Brad_Harrison5838@gompie.com
Leroy Rigg,6snLMd,B0HT6,Honolulu,Leroy_Rigg1351@deons.tech
Makenzie Rycroft,uzeDa9,043Ju,Quebec,Makenzie_Rycroft8997@jiman.org
Nicholas Collingwood,yVmAil,gkwyx,Saint Paul,Nicholas_Collingwood4703@bauros.biz
Fred Donovan,yHvtfs,xRTUQ,Detroit,Fred_Donovan2153@famism.biz
Madelyn Antcliff,RrbWMN,7coKD,Washington,Madelyn_Antcliff4224@supunk.biz
Jayden Stewart,cGi9Sn,ztPRP,Prague,Jayden_Stewart5625@sheye.org
Colleen Duvall,d6R0l3,xQ0it,Venice,Colleen_Duvall8892@bungar.biz
Benny Leigh,llBY8E,ln75s,Cincinnati,Benny_Leigh911@joiniaa.com
Nicholas Janes,4JAz0M,utbFF,Colorado Springs,Nicholas_Janes3562@acrit.org
Ethan Rodgers,Kc9pf2,pNo8F,Tulsa,Ethan_Rodgers7633@atink.com
Margaret Andersson,BAirvZ,Rpg8g,San Bernardino,Margaret_Andersson5964@mafthy.com
Adeline Power,PgUqZR,UlLOp,Paris,Adeline_Power6839@bungar.biz
Sofie Allwood,UFmUYD,rA83J,Seattle,Sofie_Allwood622@supunk.biz
Julia Graham,3OT1lt,OFjKl,Chicago,Julia_Graham8451@famism.biz
Winnie Hall,Pi5t0c,mpbXK,Jersey City,Winnie_Hall1211@qater.org
Alexia Mcgee,CGz7tV,XOz2G,Murfreesboro,Alexia_Mcgee1278@zorer.org
Ilona Emmott,I3E8Dw,rLKWD,Detroit,Ilona_Emmott4566@ubusive.com
Sloane Reid,AE3ygM,heBjg,Richmond,Sloane_Reid3110@cispeto.com
Willow Coll,sTGA8U,Iwi9T,Madrid,Willow_Coll3666@gompie.com
Wade Dunbar,13vcmr,gdCMK,Milwaukee,Wade_Dunbar8557@qater.org
Leroy Gardner,lFL1Bu,uC7MO,Bakersfield,Leroy_Gardner6512@fuliss.net
Jade Hardwick,oSzXFl,kg5H7,Prague,Jade_Hardwick7053@atink.com
Tony Davies,6mCZzJ,AaofS,London,Tony_Davies3918@tonsy.org
Penelope Clarke,LiZPfd,lUFmx,St. Louis,Penelope_Clarke2540@famism.biz
Doug Umney,EM3nyJ,z6bGR,Richmond,Doug_Umney5414@bungar.biz
Martin Warren,73sfaJ,bEtgM,Henderson,Martin_Warren4033@kideod.biz
Lillian Whitehouse,HJNKXZ,kSEWT,Laredo,Lillian_Whitehouse5523@nimogy.biz
Carla Cox,F1PZnD,biFmm,Portland,Carla_Cox351@muall.tech
Mandy Richardson,ybatkd,IMWwH,New York,Mandy_Richardson1855@hourpy.biz
Sadie Brett,XpKFeG,vlRx7,Orlando,Sadie_Brett424@brety.org
Jack Ingham,2tOmeY,HMRQU,Sacramento,Jack_Ingham8972@naiker.biz
Chadwick Grady,QFj8TV,oHSqK,Los Angeles,Chadwick_Grady3132@famism.biz
Nick Cork,6RNa2R,D2Nzb,Venice,Nick_Cork3918@fuliss.net
Margot Mccall,cd1giY,jfMr6,Orlando,Margot_Mccall9639@liret.org
Maxwell Moss,0UIjYy,gFGfN,Paris,Maxwell_Moss9074@nickia.com
Margaret Brennan,lFlJY2,n5pjG,Springfield,Margaret_Brennan2481@vetan.org
Angelina Poulton,KB7eDo,Vbb3W,Washington,Angelina_Poulton2910@yahoo.com
Alex Vallory,mplDbc,eosOZ,Irving,Alex_Vallory8622@guentu.biz
Marissa Thompson,fxqvhb,Ps69R,Columbus,Marissa_Thompson3847@grannar.com
Andrea Ryan,9AJHsj,czUZ5,Colorado Springs,Andrea_Ryan5861@extex.org
Josh Rosenbloom,fVI5EO,VUfcN,Tokyo,Josh_Rosenbloom3381@nimogy.biz
Ally Anderson,3gRlxN,O5NBT,Amarillo,Ally_Anderson3557@extex.org
Anne Mitchell,Cncl4w,xxMGO,Santa Ana,Anne_Mitchell9933@deavo.com
Olivia Ainsworth,FSk7sH,491NC,San Jose,Olivia_Ainsworth1530@irrepsy.com
Dalia Sinclair,pxlr9u,exkH9,Denver,Dalia_Sinclair2198@bretoux.com
Analise Kirby,4KH0Tf,hmDjv,Madrid,Analise_Kirby522@iatim.tech
Sadie Reading,DqGiGh,GKHA5,San Bernardino,Sadie_Reading6435@bulaffy.com
Shay Milner,ikMpVR,DF5Lt,Louisville,Shay_Milner5423@irrepsy.com
Cynthia Dixon,PHHgxn,BqMfm,Houston,Cynthia_Dixon4088@muall.tech
Barry Powell,F2PysZ,CcKVX,Prague,Barry_Powell5755@womeona.net
Gwen Simpson,pFDhu7,L8Iwb,Long Beach,Gwen_Simpson5259@womeona.net
Elijah Hopkins,Yma5hs,EDnRn,Venice,Elijah_Hopkins6272@extex.org
Christy Allen,9bJcU5,Dzjml,Henderson,Christy_Allen6418@typill.biz
Michael Chadwick,Iwu7HX,9dHqh,Milwaukee,Michael_Chadwick5121@naiker.biz
Joseph Leslie,htDGEr,WG7Fd,Amarillo,Joseph_Leslie9957@irrepsy.com
Lucas Baker,1azh1E,K8NOf,San Antonio,Lucas_Baker621@hourpy.biz
Mina Kelly,Qbe5DE,X1KRf,New Orleans,Mina_Kelly1188@gembat.biz
Benjamin Cartwright,5x4dpp,2H0d0,Garland,Benjamin_Cartwright8968@eirey.tech
Diane Shepherd,MB4qxV,cqrxo,Berna,Diane_Shepherd964@yahoo.com
Hank Saunders,4jcJlw,lxNlg,Worcester,Hank_Saunders2722@yahoo.com
Elle Bowen,ADrNIc,cw81O,Irving,Elle_Bowen7539@kideod.biz
Percy Baldwin,VgFNlP,T2kt5,Salt Lake City,Percy_Baldwin4255@sheye.org
Nick Watt,BWd6wG,AWm4W,Fort Lauderdale,Nick_Watt4593@nanoff.biz
Russel Leigh,q23hZy,YUish,Phoenix,Russel_Leigh5492@deons.tech
Elijah Woodley,aDnxja,F08V6,Moreno Valley,Elijah_Woodley1227@gompie.com
Caitlyn Clayton,FWkyli,FlNYd,Pittsburgh,Caitlyn_Clayton758@typill.biz
Carter Richardson,uDztGc,xqbdb,Scottsdale,Carter_Richardson4291@atink.com
Lynn Weston,9mmkyf,hMVCm,Richmond,Lynn_Weston8987@womeona.net
Rocco Glass,zvzK94,wHKEo,Lisbon,Rocco_Glass7950@liret.org
Carmella Lynn,yvSc5i,RgvaL,Rome,Carmella_Lynn5375@ovock.tech
Joseph Jarvis,U6MeAs,0coa3,Paris,Joseph_Jarvis5502@naiker.biz
Rowan Griffiths,sxgl3N,hnNdk,Saint Paul,Rowan_Griffiths6327@twace.org
Brad Carter,4yd5xC,c9RIX,Minneapolis,Brad_Carter2125@iatim.tech
Bart Power,OEOuat,o0wOP,Lakewood,Bart_Power139@twipet.com
Emma Rogan,2DBh4v,DmmEK,St. Louis,Emma_Rogan130@qater.org
George Bryant,3qBqeE,yFByN,Stockton,George_Bryant2666@qater.org
Luke Lewis,uRBfUT,LIyoe,New Orleans,Luke_Lewis7708@gmail.com
Carmen Long,Xb3aY8,Mc26z,Atlanta,Carmen_Long3519@liret.org
Vicky Daniells,G9gDjW,0iqZU,San Diego,Vicky_Daniells2512@elnee.tech
Kurt Gordon,dxgpVS,yDbWV,Dallas,Kurt_Gordon4551@elnee.tech
Anabelle Yarwood,Q9xXxF,D2sj2,Honolulu,Anabelle_Yarwood6340@womeona.net
Chanelle Walsh,vHXPuq,r9I9e,Charlotte,Chanelle_Walsh2260@infotech44.tech
Celia Ashwell,JPAbps,cxnt6,Bellevue,Celia_Ashwell8053@qater.org
Eduardo Kelly,pcQlfS,FYpFj,Fullerton,Eduardo_Kelly4866@mafthy.com
Ramon Victor,WUqFFZ,4bH7v,Portland,Ramon_Victor3334@atink.com
Ellen Lewis,SSowo7,5DAm3,Glendale,Ellen_Lewis1528@twace.org
Hank Fox,eaP0jD,VJYUT,San Diego,Hank_Fox3307@bungar.biz
Priscilla Cunningham,RzUcsW,vBFwB,Lancaster,Priscilla_Cunningham9647@hourpy.biz
Anabelle Bell,pStbtP,SmPnl,Atlanta,Anabelle_Bell6701@nimogy.biz
Juliet Roth,091GvD,eydQU,Tulsa,Juliet_Roth4306@corti.com
Daniel Rosenbloom,QhPtij,BzctK,Rome,Daniel_Rosenbloom4247@deons.tech
Abdul Chester,96wo3P,OnP88,Ontario,Abdul_Chester8199@atink.com
Madelyn Barrett,ZglNRZ,zRSUT,Escondido,Madelyn_Barrett564@nanoff.biz
Mike Mcleod,fbI4XR,AGTlD,Prague,Mike_Mcleod6455@mafthy.com
Anthony Anderson,qbJwrg,7Wk44,Minneapolis,Anthony_Anderson1925@typill.biz
Mark Evans,nwbMCO,kH8yv,New Orleans,Mark_Evans6579@bauros.biz
Noemi Selby,e5mox4,KhwWG,Houston,Noemi_Selby1171@naiker.biz
Hope Lee,6KfHoM,jotrM,Glendale,Hope_Lee9335@nanoff.biz
Ronald Yang,Tqpt01,RoP1e,Zurich,Ronald_Yang8593@yahoo.com
Roger York,xNzm0s,C9EM8,Oakland,Roger_York8539@tonsy.org
Cristal Wilde,evvfFS,OcYUF,St. Louis,Cristal_Wilde8672@nimogy.biz
Dakota Norburn,XULzc7,nuvoT,Venice,Dakota_Norburn3920@nickia.com
Harry Norman,hhT3r4,lJbY7,Phoenix,Harry_Norman2049@womeona.net
Stella Hamilton,yOjzBx,IvUn5,Murfreesboro,Stella_Hamilton95@muall.tech
Fred Spencer,JVanpZ,jqBjq,Fayetteville,Fred_Spencer5675@twace.org
Ramon Michael,1rBXft,KHXQp,Dallas,Ramon_Michael4356@brety.org
Chuck Buckley,XshqJy,9IAOc,Otawa,Chuck_Buckley7559@cispeto.com
Maya Dobson,xcqSnm,PfRI3,Lincoln,Maya_Dobson5821@qater.org
Margot Pickard,ufbXs2,BOffs,Indianapolis,Margot_Pickard6260@bauros.biz
David Giles,6TROuG,SK1pF,Toledo,David_Giles4234@supunk.biz
Willow Maxwell,vLFiFk,pDHHh,Ontario,Willow_Maxwell6603@supunk.biz
Tom Glynn,4jyx9Z,JN0M5,Denver,Tom_Glynn846@sveldo.biz
Alexander Umney,9xA60t,mKm8v,Toledo,Alexander_Umney2026@twipet.com
Elena Russel,dAw5vw,6VOXt,Charlotte,Elena_Russel393@fuliss.net
Lexi Oakley,YH5JDz,MmXaY,Henderson,Lexi_Oakley6442@bulaffy.com
Liv Bingham,nID8OA,EklV2,Memphis,Liv_Bingham5868@infotech44.tech
Denis Todd,4CNLaK,jSYWi,Albuquerque,Denis_Todd5955@irrepsy.com
Daniel Squire,XPLwJH,0ibeU,Seattle,Daniel_Squire7850@kideod.biz
John Clifford,ArxjN8,epzog,Seattle,John_Clifford138@zorer.org
Nate Lewis,lHppu5,Wm8qO,Huntsville,Nate_Lewis6093@bulaffy.com
Tom Gibson,dRHsJR,qGUcU,Rochester,Tom_Gibson4349@vetan.org
Gabriel Whitehouse,04lhPw,a6ORP,Prague,Gabriel_Whitehouse2241@bauros.biz
Tyson Uttridge,YlOjbz,9iacC,Indianapolis,Tyson_Uttridge5381@dionrab.com
Marina Alldridge,DmV1Nf,qw59b,San Francisco,Marina_Alldridge1026@brety.org
Abdul Allwood,Nzx4ZE,m8zTY,Atlanta,Abdul_Allwood7008@gembat.biz
Rosa Corbett,qXEuLG,hwg0i,Kansas City,Rosa_Corbett3169@bauros.biz
Ron Heaton,18GMoi,t3XLR,Escondido,Ron_Heaton2206@sheye.org
Caleb Robe,C6qEBs,PH3OE,Jacksonville,Caleb_Robe5200@gompie.com
Rosa Mcgee,Wds3Cz,V1x5Q,Oklahoma City,Rosa_Mcgee2980@dionrab.com
Ron Quinn,sv8ozP,1EuUo,Henderson,Ron_Quinn8597@iatim.tech
Russel Nayler,ZfyG9H,VMOx9,Anaheim,Russel_Nayler5942@atink.com
Barney Watson,050UhN,1yReq,Los Angeles,Barney_Watson9427@twipet.com
Alison Wren,oD1Nsn,nbkc1,Miami,Alison_Wren1591@nanoff.biz
Zoe Greenwood,vol41R,6Rrno,Madison,Zoe_Greenwood2862@cispeto.com
Benny Butler,fbO9IS,M26vA,Seattle,Benny_Butler1298@ubusive.com
Carina Whittle,gAcIww,56BA9,Norfolk,Carina_Whittle3082@ovock.tech
Hannah Parker,psxpnW,YC5f6,Berlin,Hannah_Parker5718@bretoux.com
Abdul Walsh,8THYsp,TDGSN,New York,Abdul_Walsh6378@typill.biz
Chris Payne,oy4m2o,DG1Q8,Lisbon,Chris_Payne4488@nimogy.biz
Elijah Thorpe,8NvO7D,emhEL,Fort Lauderdale,Elijah_Thorpe2863@deavo.com
Havana Mcguire,oS1XGo,DR0YU,Lisbon,Havana_Mcguire6600@mafthy.com
Chanelle Turner,zPsRrv,Z9Vk2,Norfolk,Chanelle_Turner5766@gompie.com
Cameron Ranks,CiV52j,r6GoK,Columbus,Cameron_Ranks8751@irrepsy.com
Ivette Wilkinson,2Nrw7g,bYvEL,St. Louis,Ivette_Wilkinson2740@hourpy.biz
Chelsea Walsh,iwWZ7q,AUkHP,San Jose,Chelsea_Walsh4667@sveldo.biz
Michael Reid,qR3kEB,3gHeg,Dallas,Michael_Reid8319@hourpy.biz
Hank Ross,4CEi4h,rcWZM,Bucharest,Hank_Ross2940@ovock.tech
Abdul Funnell,Iggqdu,d20Le,Pittsburgh,Abdul_Funnell7578@twipet.com
Barry Ulyatt,L9dEwt,MIsmq,New Orleans,Barry_Ulyatt8199@womeona.net
Kirsten Lowe,qyo4bR,lpEWM,Colorado Springs,Kirsten_Lowe6125@sveldo.biz
Samara Bright,vJSkWw,TivIw,Minneapolis,Samara_Bright227@muall.tech
Erick Morgan,mFi6ur,1YrX9,Zurich,Erick_Morgan973@corti.com
Joseph James,wNklTB,UWqJz,Long Beach,Joseph_James508@brety.org
Chuck Pickard,fMOdAb,aLpZU,Kansas City,Chuck_Pickard6669@iatim.tech
Maribel Townend,13N8SD,NkEiC,Fayetteville,Maribel_Townend6505@muall.tech
Mina Milner,9Mg4vw,KZomA,Bellevue,Mina_Milner137@cispeto.com
Mandy Woods,0LvDMI,A362X,Salt Lake City,Mandy_Woods152@bauros.biz
Elly Varley,nKErGH,CjobM,Louisville,Elly_Varley542@yahoo.com
Johnny Plant,xsmAxD,fBy3w,St. Louis,Johnny_Plant6314@qater.org
Erin Goodman,2RpsuE,sehqy,Madison,Erin_Goodman8938@qater.org
Remy Slater,7qMk0G,iqSNQ,Arlington,Remy_Slater268@mafthy.com
Henry Griffiths,KTofDo,3gQXr,San Diego,Henry_Griffiths9163@famism.biz
Caleb Lambert,34IyCK,HCb0b,Albuquerque,Caleb_Lambert5113@deons.tech
Domenic Reynolds,qeHQ3C,TDjt1,Stockton,Domenic_Reynolds3836@nanoff.biz
Matthew Poulton,rr5zII,hdmxb,St. Louis,Matthew_Poulton7518@jiman.org
Marilyn Aldridge,WeYjA2,zvcbP,Berlin,Marilyn_Aldridge584@nimogy.biz
Chris Hill,YfcahW,kwRO1,Houston,Chris_Hill8244@kideod.biz
Doug Bailey,xxVlqz,GEprR,Worcester,Doug_Bailey5595@sveldo.biz
Rocco Woods,29qOyI,xwsn8,Quebec,Rocco_Woods6330@extex.org
Anthony Tobin,3XIssp,WW2oS,Albuquerque,Anthony_Tobin7192@twace.org
Helen Wood,kXQd8o,hy8LH,Wien,Helen_Wood413@deavo.com
Chloe Ianson,O4qrKT,U26df,Omaha,Chloe_Ianson39@cispeto.com
Gil Kelly,Yfq14s,l3teO,Garland,Gil_Kelly8323@bungar.biz
Harry Morris,3oPrZD,6lBKC,Jersey City,Harry_Morris9649@nickia.com
Kieth Kidd,T26WTM,FxazF,Worcester,Kieth_Kidd1155@grannar.com
Eileen Robertson,mtyg9b,tQ2hi,Bridgeport,Eileen_Robertson7762@typill.biz
Daron Chadwick,mBoIjc,K39O0,Lisbon,Daron_Chadwick9128@iatim.tech
Anabel Farrell,D9LRUb,MGaog,Richmond,Anabel_Farrell6474@yahoo.com
John Flack,4jTWCR,om9N3,Salem,John_Flack9698@bulaffy.com
Chadwick Flett,ugHtRj,cCJyn,Moreno Valley,Chadwick_Flett3442@gembat.biz
Matthew Mitchell,s18GBs,hoVNS,Philadelphia,Matthew_Mitchell4621@bauros.biz
Mike Pratt,RDKVn9,0T3cA,Lakewood,Mike_Pratt6483@fuliss.net
Chris Murphy,LQYNty,jF6WK,Paris,Chris_Murphy6856@famism.biz
Maggie Jacobs,5MkcF1,HwHPg,Colorado Springs,Maggie_Jacobs6923@gembat.biz
Nina Richardson,jIXHhP,kQqnq,Fort Lauderdale,Nina_Richardson2059@joiniaa.com
Noah Collins,Ea3qGZ,RaliD,Nashville,Noah_Collins2547@atink.com
Kurt Gavin,eFk3X6,AMZNb,Bridgeport,Kurt_Gavin9219@qater.org
Michaela Cox,IPemct,Gr6rg,Fullerton,Michaela_Cox4289@cispeto.com
Jennifer Wilcox,4qUuqd,3drLz,Jacksonville,Jennifer_Wilcox6780@deavo.com
Jack Clifford,9OTuBV,dMbPd,Jersey City,Jack_Clifford9743@deavo.com
Nicholas Bloom,5ChTcw,lJviR,Huntsville,Nicholas_Bloom2700@infotech44.tech
Clint Snow,f7BF2V,0iPNZ,Innsbruck,Clint_Snow7210@irrepsy.com
Russel Roman,wQ33hc,slQxM,Arlington,Russel_Roman1666@jiman.org
Julian Dixon,NRRADr,ruMiL,Berlin,Julian_Dixon494@deons.tech
Peter Button,M5mV7f,Temho,Escondido,Peter_Button849@ovock.tech
Rufus Williams,PTKktj,LIU3g,Pittsburgh,Rufus_Williams2087@brety.org
Drew Woodcock,EVGZPv,8faKD,Madison,Drew_Woodcock1201@iatim.tech
Lucas Nicolas,zXTGdW,aMnmx,San Antonio,Lucas_Nicolas4145@typill.biz
Jamie Fenton,1vZjAh,LESYI,Sacramento,Jamie_Fenton2148@jiman.org
Anabel Vass,3IeYl9,pMmJK,Oakland,Anabel_Vass147@acrit.org
Aleksandra Donnelly,vS9fy0,HBK7S,Tulsa,Aleksandra_Donnelly4154@acrit.org
Caleb Morrow,4A9NPw,tWYYA,San Francisco,Caleb_Morrow2848@yahoo.com
Ron Powell,fJRnFR,XWbBX,Sacramento,Ron_Powell2016@naiker.biz
Hank Thorne,b49Tff,QIacG,Irving,Hank_Thorne8853@bungar.biz
Liam Heaton,0LPozs,m0yvW,Reno,Liam_Heaton1914@mafthy.com
Ethan West,kUqYAn,BfpzR,Otawa,Ethan_West5517@deons.tech
Bryce Weasley,6n6FmL,Wcqu3,Louisville,Bryce_Weasley2294@qater.org
Melinda Russel,VtLU0h,NJK2V,Richmond,Melinda_Russel2682@nickia.com
Brooklyn Hunter,phOc8I,T5U3H,Ontario,Brooklyn_Hunter4348@infotech44.tech
Elijah Mullins,ujlJFF,s6cSA,St. Louis,Elijah_Mullins4129@deons.tech
Chris Donnelly,MWQ2Wl,1YgoG,Wien,Chris_Donnelly7294@bulaffy.com
Tom Richardson,5eUijc,ffgzT,Fremont,Tom_Richardson9113@typill.biz
Naomi Daniells,w96VX7,tujam,El Paso,Naomi_Daniells7229@supunk.biz
Denny Jones,KWK7m4,uW0vi,Jacksonville,Denny_Jones6103@qater.org
Peter Tyler,H9Ashg,kyAB3,Dallas,Peter_Tyler7970@kideod.biz
John Cameron,n4a7JF,M8gLL,Las Vegas,John_Cameron9591@gompie.com
Phoebe Mann,QBVomz,jIm31,Cincinnati,Phoebe_Mann534@ubusive.com
Martha Power,N4C084,ytBUY,Detroit,Martha_Power420@kideod.biz
Peyton Reyes,LP54BF,0yhLU,Memphis,Peyton_Reyes4731@zorer.org
Allison Simpson,W3WDSH,h4lfK,Garland,Allison_Simpson5797@kideod.biz
Aiden Mcnally,IBjJMz,LCasd,Chicago,Aiden_Mcnally5440@irrepsy.com
Jacob Fall,FM1z3I,X9Zjp,Rome,Jacob_Fall9576@bauros.biz
Abdul Thorpe,s33uJE,KB1YD,Springfield,Abdul_Thorpe600@famism.biz
Daniel Murphy,WimUP3,MJwPg,Oklahoma City,Daniel_Murphy4745@infotech44.tech
Julian Taylor,uleY5I,ryCtT,Omaha,Julian_Taylor3524@womeona.net
Rick Donnelly,XAI8d9,rkWyo,Murfreesboro,Rick_Donnelly3841@joiniaa.com
Hanna Harper,SFaCaa,5gNJ2,Saint Paul,Hanna_Harper4374@brety.org
Josh Downing,k3kQQl,xyiTC,Garland,Josh_Downing6505@bretoux.com
Manuel Eaton,O3Ld7j,McQ0z,Hollywood,Manuel_Eaton9290@deons.tech
Benjamin Mcleod,zPHiBe,nO1G2,Salem,Benjamin_Mcleod5638@qater.org
Boris Mann,enrdnU,XyAv8,Hayward,Boris_Mann6339@liret.org
Carmella Boden,e4t7MZ,iPFdT,Salem,Carmella_Boden6945@extex.org
Daria Utterson,le57L5,tuBtp,Valetta,Daria_Utterson2335@guentu.biz
George Vince,VxA6SN,IOi0E,Scottsdale,George_Vince3168@sheye.org
Destiny Irving,matQS9,9NLq3,Glendale,Destiny_Irving8526@mafthy.com
Ron Janes,oUPETQ,xsnEp,Laredo,Ron_Janes7022@infotech44.tech
Felicity Gardner,QhyEDx,AtHhO,San Jose,Felicity_Gardner6999@jiman.org
Marina Horton,HgThTK,6hp4U,Tokyo,Marina_Horton4769@deavo.com
Kieth Farrant,Ty0Rlg,PVLsi,Long Beach,Kieth_Farrant9346@typill.biz
Rosemary Selby,0RgF7X,2gX3p,Pittsburgh,Rosemary_Selby6384@hourpy.biz
Lorraine Stuart,74DqfA,ELHbX,Albuquerque,Lorraine_Stuart7324@sveldo.biz
Stephanie Kennedy,1xdJWa,7uNmj,Irving,Stephanie_Kennedy5546@guentu.biz
Carter Stuart,0CMDUR,c406f,St. Louis,Carter_Stuart6499@naiker.biz
Daniel Simpson,8V5Tkd,F5SXf,Murfreesboro,Daniel_Simpson5627@grannar.com
Darlene Wilson,PUjqgg,BOgec,Berna,Darlene_Wilson5656@qater.org
Joseph Weston,4D9JQj,GHC36,Madrid,Joseph_Weston2769@supunk.biz
Matt Ranks,g8VNcz,4EE9n,Milano,Matt_Ranks7337@womeona.net
Abdul Holmes,n5SH9v,cjdnE,San Bernardino,Abdul_Holmes2426@sveldo.biz
Ivette Crawford,TRZbcO,EELkd,Fremont,Ivette_Crawford3049@acrit.org
Benjamin Shepherd,tlsQhN,2n8L0,Salem,Benjamin_Shepherd8315@zorer.org
Tyler James,N7VcLr,NDyL9,Amarillo,Tyler_James1776@jiman.org
Wade Vollans,XUs4wE,hxeCO,Glendale,Wade_Vollans3529@deavo.com
Keira Yates,IuR4i4,eNsC3,Otawa,Keira_Yates7919@bulaffy.com
Ronald Ward,eXUnb2,yoqo9,Boston,Ronald_Ward4583@irrepsy.com
Paige Hammond,Il67ya,OrDCn,Salt Lake City,Paige_Hammond7002@twace.org
Alexander James,NZOHr1,cP2Pf,Bucharest,Alexander_James2643@gompie.com
Johnny Fields,w2D9q6,G6X0L,Tulsa,Johnny_Fields9862@womeona.net
Jacob Milner,PyITbt,es6Kt,Oakland,Jacob_Milner7936@irrepsy.com
Remy Denton,V2wYgc,HLTBR,Otawa,Remy_Denton8877@deavo.com
Benjamin Patel,T2LDUI,jRuwX,Innsbruck,Benjamin_Patel5896@supunk.biz
Abdul Davies,LWkpsV,AIIsM,Lyon,Abdul_Davies512@kideod.biz
Henry Bradley,JEkRAt,NHwpt,Amarillo,Henry_Bradley7224@iatim.tech
Carter Graves,g3Bhkg,K5MZW,Memphis,Carter_Graves6934@ubusive.com
Rylee Vallins,OIKXLn,Xh6qQ,Rochester,Rylee_Vallins4082@deons.tech
Roger Samuel,5jDDii,ZWxT1,Philadelphia,Roger_Samuel927@ubusive.com
Mike Thompson,Y4u1VP,o9oz3,Los Angeles,Mike_Thompson7958@ubusive.com
Gwen Thomas,ZVG6qk,vAXTf,Phoenix,Gwen_Thomas8442@acrit.org
Alma Button,qOU7kT,YD4sf,Fremont,Alma_Button92@extex.org
Johnathan Mullins,5dqwsU,9076I,Washington,Johnathan_Mullins8096@corti.com
Dalia Blythe,n905zB,s2v1P,Madrid,Dalia_Blythe3682@ubusive.com
Aleksandra Townend,Z8s383,VGmXP,Los Angeles,Aleksandra_Townend951@liret.org
Mark Douglas,Vo0SGb,846cu,Orlando,Mark_Douglas5976@vetan.org
Noemi Crawford,EdmNpF,eyMoc,Denver,Noemi_Crawford6778@muall.tech
Roger Gaynor,9NIUTg,t9Bak,Dallas,Roger_Gaynor186@sheye.org
Alma Daniells,Jkqpqi,Vd3wf,Houston,Alma_Daniells2665@typill.biz
Jacob King,mDM0v6,2Ono4,Paris,Jacob_King1906@guentu.biz
Matthew Moran,elYxSo,w1ZtO,Salem,Matthew_Moran7646@vetan.org
Jessica Clayton,J5MEYn,ybD3b,Garland,Jessica_Clayton7042@bulaffy.com
Kate Flanders,U78UTY,Z8VNo,Quebec,Kate_Flanders8660@famism.biz
Lindsay Lewis,tihqF8,kVPuU,Worcester,Lindsay_Lewis7147@hourpy.biz
Sharon Newton,RERjzg,wGDaK,Berna,Sharon_Newton1891@qater.org
Sylvia Hill,KddyO9,Y8EoF,San Jose,Sylvia_Hill6251@gmail.com
Bryce Fisher,vxnt4C,vkCia,New York,Bryce_Fisher546@bulaffy.com
Elijah Holt,psubDF,3ku2r,Otawa,Elijah_Holt4291@famism.biz
Carla Olson,FwtpPb,rNMa8,Ontario,Carla_Olson240@bauros.biz
Maxwell Quinn,rtCJsr,uJKJE,Honolulu,Maxwell_Quinn6117@cispeto.com
Lexi Ripley,y8cnZR,CN1o5,Oklahoma City,Lexi_Ripley7231@twace.org
Michelle Drummond,U8maXE,9gFRm,Long Beach,Michelle_Drummond5818@bungar.biz
Melanie Hopkins,6UtqSc,A51Cz,Dallas,Melanie_Hopkins4420@yahoo.com
Tania Morris,KtmCa4,dGU9Z,Honolulu,Tania_Morris2736@brety.org
Mason Varndell,MCvaCg,megBK,Honolulu,Mason_Varndell6463@eirey.tech
Melania Price,ugNffa,Qk7ck,Milwaukee,Melania_Price5847@bretoux.com
Eileen Adams,zomEIN,Ah42S,Boston,Eileen_Adams6804@brety.org
Tom Harrison,8Jcoql,fzEDB,Orlando,Tom_Harrison9333@deavo.com
Emma Gavin,aQUAmS,M7kh7,London,Emma_Gavin2858@brety.org
Roger Warner,UAfmID,HODK8,Toledo,Roger_Warner9819@nanoff.biz
Jayden Holt,TNmLW0,PrGDh,Orlando,Jayden_Holt7894@ubusive.com
Jacob Marshall,XAZvRN,MviIN,Lakewood,Jacob_Marshall6046@gmail.com
Barney Jobson,Z3cM7K,Q4C9k,Colorado Springs,Barney_Jobson2676@hourpy.biz
Anne Long,xR2hC9,aaxrB,Hayward,Anne_Long5007@nimogy.biz
Sabina Kidd,4C4UZz,I0POm,Hollywood,Sabina_Kidd2935@bretoux.com
Javier Ralph,kYNaX3,CwKcO,Bakersfield,Javier_Ralph5355@twipet.com
Lillian Allcott,4BxGXb,trxvx,Indianapolis,Lillian_Allcott5096@joiniaa.com
Evelynn Yoman,GcJXhI,1iPW4,Prague,Evelynn_Yoman7073@bungar.biz
Ryan Booth,XJVDM6,dtjIO,Zurich,Ryan_Booth6548@dionrab.com
Isabel Martin,LRQEX2,6iIEz,Fullerton,Isabel_Martin876@hourpy.biz
Hayden Trent,BrSR3f,po8An,Kansas City,Hayden_Trent5934@bretoux.com
Mark Moreno,ulTuAR,ZfE1o,Houston,Mark_Moreno4886@bretoux.com
Melinda Mcgee,CpI4Rw,kaY1S,San Francisco,Melinda_Mcgee5360@sheye.org
Carla Morgan,ETi4Aa,3wznB,El Paso,Carla_Morgan4814@nimogy.biz
Hanna Hunter,P1Kkcy,sUlZG,Denver,Hanna_Hunter5396@deons.tech
Penelope Waterson,O96DCO,PIcIj,Tulsa,Penelope_Waterson9208@nanoff.biz
Selena Dixon,gbf9le,zkYBw,Fremont,Selena_Dixon2871@womeona.net
Courtney Stark,cTvhNm,4bAqJ,Colorado Springs,Courtney_Stark6882@liret.org
Camila Myatt,j4l5ne,HdoMd,Oklahoma City,Camila_Myatt1719@vetan.org
Mavis Jenkin,sp2XSy,khlyp,Hayward,Mavis_Jenkin7070@naiker.biz
Charlize Spencer,7vKozy,oEjab,Amarillo,Charlize_Spencer8332@dionrab.com
Ronald Morley,gbmORG,AXBqb,Sacramento,Ronald_Morley9411@elnee.tech
Paige Morris,oIkr21,OStYJ,Saint Paul,Paige_Morris7705@bauros.biz
Norah Mcgregor,PNgaqo,JQxIM,Springfield,Norah_Mcgregor6241@extex.org
Benny Pratt,aIZnok,X6hs1,Santa Ana,Benny_Pratt2549@bungar.biz
Felicity Speed,Kl0E7d,abEsC,Lakewood,Felicity_Speed1128@supunk.biz
Ember Murphy,TQYtln,IeI6S,Madison,Ember_Murphy5493@gembat.biz
Ryan Verdon,zBsQcp,8Mj1V,Wien,Ryan_Verdon4280@ubusive.com
Lily Tindall,mwb0i8,rjzhI,Fullerton,Lily_Tindall5271@womeona.net
Mark Russell,ifTK1l,agCvx,Springfield,Mark_Russell7112@vetan.org
Fred Roscoe,kWINQC,AqmH0,Innsbruck,Fred_Roscoe452@acrit.org
Abdul Rycroft,vycnuL,BTgM4,Denver,Abdul_Rycroft1172@bulaffy.com
Elisabeth Veale,5gK0Sc,SeOdk,Garland,Elisabeth_Veale9892@elnee.tech
Marla Isaac,1IQF0K,H3t0G,New Orleans,Marla_Isaac5115@gembat.biz
Kieth Reynolds,Z6lfcW,JJfsb,Lisbon,Kieth_Reynolds5374@sheye.org
Jamie Larkin,DB9rFV,C7imM,Venice,Jamie_Larkin7239@eirey.tech
Adalind Kennedy,BYDzYw,G5Ucq,El Paso,Adalind_Kennedy2030@dionrab.com
Tyler Kennedy,JnAhTk,ii4t7,Boston,Tyler_Kennedy7891@kideod.biz
Julian Clark,uKa6pP,2wv3W,Fayetteville,Julian_Clark3531@grannar.com
Cedrick Saunders,GQSMry,fQdCI,Cincinnati,Cedrick_Saunders5371@extex.org
Cara Robinson,TWmxdY,HvhqL,Milano,Cara_Robinson5547@tonsy.org
Dani Casey,VPalDW,4pLMt,Lincoln,Dani_Casey2296@bulaffy.com
Celia Miller,OTQLn2,KaJHT,Colorado Springs,Celia_Miller9289@qater.org
Luke Roscoe,n4txQ9,rHRMY,Cincinnati,Luke_Roscoe3184@naiker.biz
Keira Baker,79CmsX,QK3Pl,New York,Keira_Baker2582@ubusive.com
Adina Gordon,PTLJ8T,jEVpv,Oakland,Adina_Gordon8384@ubusive.com
Elijah Jackson,40XH5g,cmWuG,Albuquerque,Elijah_Jackson317@zorer.org
Roger Calderwood,gpXc8q,dhXse,Madison,Roger_Calderwood555@bulaffy.com
Kamila Wilson,aCPXUw,tglic,San Bernardino,Kamila_Wilson3124@typill.biz
Rick Leslie,xqz15K,4jiy7,Richmond,Rick_Leslie3129@qater.org
Kassandra Forth,aczbM2,o6XHA,Pittsburgh,Kassandra_Forth586@bulaffy.com
Manuel Gates,Gj1Ef1,Vxv8v,Seattle,Manuel_Gates2927@deavo.com
Anais Donovan,Xxwjlx,K5iD3,El Paso,Anais_Donovan5001@bulaffy.com
Joyce Wright,tRoB5l,ena42,Worcester,Joyce_Wright807@supunk.biz
Chadwick Hooper,haEcfv,rJ7xb,Berlin,Chadwick_Hooper2695@dionrab.com
Ally Taylor,9TpMcM,R5K3R,Zurich,Ally_Taylor4709@nickia.com
Joy Greenwood,WTOyNg,727xD,Cincinnati,Joy_Greenwood1635@hourpy.biz
Rufus Hewitt,ZHroFO,whV2Z,Baltimore,Rufus_Hewitt4872@atink.com
Domenic Hunter,rtzNww,sTeYO,Kansas City,Domenic_Hunter4@famism.biz
Denis Andrews,PWzARF,bQ1oh,Ontario,Denis_Andrews4750@nickia.com
Bryon James,IHp0nU,9Ukzi,Minneapolis,Bryon_James3511@typill.biz
Carolyn Allington,3ljlZo,Y64IK,Jersey City,Carolyn_Allington145@brety.org
Hayden Brown,5TKimC,zqqP2,Huntsville,Hayden_Brown5108@hourpy.biz
Kendra Wilton,wdv6sd,R4sLy,Ontario,Kendra_Wilton5806@sveldo.biz
Audrey Umney,3owgQj,t5tYf,Lyon,Audrey_Umney4048@bretoux.com
Carl Gosling,7pGeM0,3o40A,Saint Paul,Carl_Gosling1068@atink.com
Russel Neal,55V2f4,BB9Ev,Honolulu,Russel_Neal3092@guentu.biz
Cassandra Roth,JuXZrx,31Wts,Washington,Cassandra_Roth6249@eirey.tech
George Rigg,Wpwtbv,EdNwH,Moreno Valley,George_Rigg5998@infotech44.tech
Martin Rainford,AsFMOI,bAJKT,Oakland,Martin_Rainford3607@hourpy.biz
Bryon Nelson,fjLNr8,S6dBv,Stockton,Bryon_Nelson7556@sheye.org
Isla Weasley,PTdkHh,UtRku,Houston,Isla_Weasley8562@ovock.tech
Faith Glynn,bMc5St,wQvGq,Honolulu,Faith_Glynn4000@joiniaa.com
Payton Lane,jZ14XC,0eZYh,Laredo,Payton_Lane6203@dionrab.com
Cadence Jackson,TtOi6j,rUWao,Glendale,Cadence_Jackson8878@tonsy.org
Matthew Cassidy,X9jKEK,la2VO,Bakersfield,Matthew_Cassidy1446@famism.biz
Rihanna Benfield,FowTmz,JkBmM,Bridgeport,Rihanna_Benfield5271@gembat.biz
Tyson Griffiths,qXHfPi,mHEOd,Salem,Tyson_Griffiths2195@gmail.com
Goldie Saunders,Ft7ouJ,ZjCiZ,Colorado Springs,Goldie_Saunders3564@twace.org
Mason Young,W5EOzF,KMilq,San Francisco,Mason_Young8002@eirey.tech
Matt Judd,Had95O,s5MAN,Minneapolis,Matt_Judd7092@deons.tech
Benny Bailey,BZi5Po,wcLis,Boston,Benny_Bailey2445@bretoux.com
Abdul Saunders,AnMfar,WSmF7,San Bernardino,Abdul_Saunders8513@cispeto.com
Morgan Niles,Nccb1w,qgup9,Reno,Morgan_Niles9644@nimogy.biz
Keira Maxwell,FwWMks,Lmmiz,Columbus,Keira_Maxwell3400@famism.biz
Phoebe Silva,FFShJ0,f8qBW,Saint Paul,Phoebe_Silva6628@supunk.biz
Jayden Herbert,Zea2nt,QzON0,Huntsville,Jayden_Herbert4024@vetan.org
Daron Graham,lkQL65,1N4rz,Milwaukee,Daron_Graham9635@nanoff.biz
Jaylene Jenkins,n78RcV,Cs4mo,Wien,Jaylene_Jenkins2807@joiniaa.com
Jayden Gibbons,wrB6di,josCb,Baltimore,Jayden_Gibbons2775@famism.biz
Teagan Cunningham,8kUfJO,OdCTM,Bellevue,Teagan_Cunningham6280@twipet.com
Madison Uttley,Y1SQJY,YntSk,Berlin,Madison_Uttley6269@gompie.com
Hope Coleman,aP6Vnc,wdbPX,Milano,Hope_Coleman941@bauros.biz
Alison Furnell,obT5yL,52Z5n,Omaha,Alison_Furnell4053@brety.org
Fred Randall,1uxuuY,fxrJB,Denver,Fred_Randall6418@grannar.com
Marigold Darcy,54IKlD,BcOgJ,Berlin,Marigold_Darcy447@cispeto.com
Mavis Garner,3rQa3C,xHHC4,Los Angeles,Mavis_Garner7684@supunk.biz
Danny Brock,y5jWPq,wRg2W,Honolulu,Danny_Brock6612@iatim.tech
Mina Anderson,oakBB2,UDeBG,Los Angeles,Mina_Anderson4582@atink.com
Elijah Coleman,rlLLoA,dIXKb,Salem,Elijah_Coleman4537@joiniaa.com
Florence Stewart,tEG5wD,OTupp,San Diego,Florence_Stewart700@brety.org
Kamila Purvis,52L39a,G3or3,Portland,Kamila_Purvis417@vetan.org
Nathan Stone,ZjFK4i,624Uy,Worcester,Nathan_Stone3011@kideod.biz
Bob Doherty,dhKwto,9BIVV,Milano,Bob_Doherty7085@dionrab.com
Ethan Smith,TIlYAU,OBFFS,Washington,Ethan_Smith3514@eirey.tech
Stacy Lynch,HJN9q5,FJwMl,Madrid,Stacy_Lynch1956@jiman.org
Taylor Grant,Ik5ddM,5vnir,Otawa,Taylor_Grant7835@deons.tech
Maxwell Pearce,6z7TnN,fPOHn,Dallas,Maxwell_Pearce8958@typill.biz
Daniel Devonport,HlWpo7,RNCWY,Miami,Daniel_Devonport9980@sveldo.biz
Hank Wright,UAbreW,aOPES,Fort Lauderdale,Hank_Wright7479@bauros.biz
Remy Murphy,7jz2S2,pFl0H,Baltimore,Remy_Murphy2299@fuliss.net
Victoria Reynolds,ecdonO,6bZ29,Toledo,Victoria_Reynolds2872@iatim.tech
Mason Robinson,J2VvBI,vl3gS,Indianapolis,Mason_Robinson153@dionrab.com
Julius Owen,PvTwUU,3a39q,Quebec,Julius_Owen3110@gembat.biz
Rachael Lane,0TGdcU,rCtrn,Lyon,Rachael_Lane3903@typill.biz
Lucas Neville,XYWvzh,bUIIF,Columbus,Lucas_Neville5883@bretoux.com
Adalind Isaac,NxkAwa,lulnQ,Springfield,Adalind_Isaac4975@tonsy.org
Blake Kent,ziw3Bw,oJUMl,Berna,Blake_Kent1433@supunk.biz
Olivia Watson,kFywl7,uBO4L,Berlin,Olivia_Watson6440@ovock.tech
Rosalee Michael,dxgbMB,51cO9,St. Louis,Rosalee_Michael4538@liret.org
Fred Hopkinson,lrwuNk,B2x1d,Innsbruck,Fred_Hopkinson6810@eirey.tech
Chad Webster,4dLlYE,34Jtu,Cincinnati,Chad_Webster7772@nickia.com
Valerie Hall,UkMTPM,ejZJc,Fremont,Valerie_Hall7712@infotech44.tech
Juliet Gray,Tfg0Nm,30E0R,Richmond,Juliet_Gray134@tonsy.org
William Vaughan,5tOupR,qB85b,Tallahassee,William_Vaughan3826@sheye.org
Candace Antcliff,VqpUH8,TdLVN,Louisville,Candace_Antcliff3940@ovock.tech
Harry Blackburn,D6mmoO,zzOqc,Omaha,Harry_Blackburn6889@deons.tech
Jayden James,0lWJxu,5Qe5d,Columbus,Jayden_James5864@extex.org
Carol Campbell,rHPwrc,0f2R1,Berlin,Carol_Campbell4906@eirey.tech
Tony Lucas,GjOHPL,qVKSV,Albuquerque,Tony_Lucas6511@deavo.com
Cedrick Roman,XFBzJI,fn5dD,San Francisco,Cedrick_Roman9967@nickia.com
Elise Salt,2ra8c5,jahJe,Escondido,Elise_Salt2297@gompie.com
Gabriel Vincent,24G66a,teUsm,Hollywood,Gabriel_Vincent1676@iatim.tech
Angelina Lambert,ydcm5J,cZm9A,San Francisco,Angelina_Lambert6922@bulaffy.com
Bryon Flack,xiW16R,reIN6,Indianapolis,Bryon_Flack3653@womeona.net
Kaylee Ranks,uMiR7v,ngUbs,Henderson,Kaylee_Ranks6349@typill.biz
Phillip Nicolas,0TX82L,uHw6g,Norfolk,Phillip_Nicolas2546@irrepsy.com
Logan Holt,JKwy0x,tUm09,San Francisco,Logan_Holt4983@joiniaa.com
Samara Cattell,qSJZ2B,yJKyH,San Diego,Samara_Cattell707@infotech44.tech
Mara Middleton,pE2QAg,ooQVv,Jacksonville,Mara_Middleton2913@womeona.net
Maxwell Roth,wGo3QJ,7op8l,Colorado Springs,Maxwell_Roth5437@zorer.org
Angelique Varndell,tm4Bpv,fulqD,Madrid,Angelique_Varndell8712@jiman.org
Chadwick Terry,LNoaY4,4mUiC,Lakewood,Chadwick_Terry7231@irrepsy.com
Julian Carpenter,yMR6HU,JJpd4,Memphis,Julian_Carpenter8051@nimogy.biz
Luke Carter,rcXuUs,9ZVNc,El Paso,Luke_Carter8834@gembat.biz
Phillip Osman,dFFKE2,fRtb9,San Francisco,Phillip_Osman5220@qater.org
Julianna Cann,vmVXde,RgvHq,Memphis,Julianna_Cann7814@eirey.tech
Cameron Mccall,NOUQnk,1clR9,Lincoln,Cameron_Mccall8244@gmail.com
Hazel Higgs,cVTX9l,xnSvz,Lisbon,Hazel_Higgs9510@tonsy.org
Joseph Stuart,ndIBIC,d42NS,Chicago,Joseph_Stuart9430@bauros.biz
Rosa Logan,xlRqNn,hmUyC,Berna,Rosa_Logan6505@deons.tech
Mark Cox,tQSjTT,zdHYf,Bellevue,Mark_Cox3568@fuliss.net
Laila Matthews,XbcwZz,kYxNa,Orlando,Laila_Matthews2211@sveldo.biz
Hank Rogers,BohldS,cNGPC,Orlando,Hank_Rogers9720@typill.biz
Leroy Sheldon,sfzjUb,rLfFY,Quebec,Leroy_Sheldon9058@jiman.org
Eileen Potter,9OoJ3I,AjTki,Huntsville,Eileen_Potter8340@joiniaa.com
Crystal Yoman,ZzWBrN,za8MD,Kansas City,Crystal_Yoman1923@extex.org
Shannon Bennett,z4ltyW,y9B0I,Jersey City,Shannon_Bennett6790@nimogy.biz
Harriet Purvis,1UluRB,zs567,London,Harriet_Purvis1159@vetan.org
Jack Olivier,jYllkd,hBqXq,Paris,Jack_Olivier2895@cispeto.com
Molly Scott,Hi2bh2,wA2a0,Lancaster,Molly_Scott9004@eirey.tech
Norah Brett,HsM7Q1,DslnI,New Orleans,Norah_Brett6415@elnee.tech
Ramon Palmer,eIiLCf,ylsCr,Louisville,Ramon_Palmer7813@twace.org
Sylvia Rees,YNLo0q,yt5Pn,Madison,Sylvia_Rees2386@extex.org
Benjamin Hill,uTQ1EN,XWiyW,St. Louis,Benjamin_Hill8253@cispeto.com
Javier Antcliff,Cyxznb,tcGPL,Henderson,Javier_Antcliff4776@famism.biz
Hayden Gavin,X4HXU9,xSS2c,Springfield,Hayden_Gavin1038@brety.org
Emery Thomson,7BzjH2,gZ77M,Salem,Emery_Thomson718@bauros.biz
Evie Darcy,I9DBsy,9hUiR,Milwaukee,Evie_Darcy89@womeona.net
Rocco Lee,G17xQB,k8WBl,Fayetteville,Rocco_Lee2321@twace.org
Daniel Davies,ltPyPM,0CwTP,London,Daniel_Davies9505@elnee.tech
Phoebe Poole,onio28,cDVwY,Madison,Phoebe_Poole988@elnee.tech
Carissa Cox,5sjy0o,GvdrV,Saint Paul,Carissa_Cox4141@mafthy.com
Phillip Clark,cUVAtv,xv3Zb,Worcester,Phillip_Clark6897@guentu.biz
Harmony Shaw,gCzmy9,b3YQH,Miami,Harmony_Shaw9312@tonsy.org
Sienna Rothwell,79vWM7,wC6Op,Rochester,Sienna_Rothwell7809@typill.biz
Bryon Locke,ExyLoV,4GUep,Nashville,Bryon_Locke9699@liret.org
Lily Chappell,56eOUF,Dj1uw,Oakland,Lily_Chappell6204@kideod.biz
Kendra Drummond,Hu9HTo,1P1cG,Los Angeles,Kendra_Drummond9785@fuliss.net
Tyson Warner,3c0kus,ulxkH,Valetta,Tyson_Warner7070@famism.biz
Camden Norris,GJvQlS,n9cm7,Detroit,Camden_Norris8823@bauros.biz
Monica Plant,iPRgXB,OffDt,Detroit,Monica_Plant1592@joiniaa.com
Bob Carpenter,4moHRK,MkSGx,Jacksonville,Bob_Carpenter9125@qater.org
Lucy Osmond,fr4UtH,hvFO3,Denver,Lucy_Osmond2974@gembat.biz
Dani Moran,zYmGQF,E6E5b,Prague,Dani_Moran6029@gembat.biz
Fred Groves,4bmwKf,HWL6S,Berna,Fred_Groves9960@guentu.biz
Russel Murphy,AsfXOm,zYoLG,Lyon,Russel_Murphy4917@fuliss.net
Tyson Uttridge,SXq8p2,ftEIv,Milano,Tyson_Uttridge820@famism.biz
Josephine Hopkinson,N3MTpy,wYgTA,Zurich,Josephine_Hopkinson7008@bungar.biz
Matt Franks,klwLVz,AnKdD,New York,Matt_Franks5703@atink.com
Julian Gates,xXNTni,3jIje,Madrid,Julian_Gates3679@gembat.biz
Allison Rose,c0fR1D,MpfVs,Milano,Allison_Rose9531@nanoff.biz
Benjamin Newman,InxE7D,2lMQg,Innsbruck,Benjamin_Newman8024@jiman.org
Jack Ulyatt,rxNv5U,BnINK,Toledo,Jack_Ulyatt1847@joiniaa.com
Abdul Haines,EHpnfx,nppxp,Indianapolis,Abdul_Haines6975@dionrab.com
Alison Spencer,diY3MT,vbz0r,Murfreesboro,Alison_Spencer218@qater.org
Peter Forth,LLvOMA,kFQgW,Kansas City,Peter_Forth4335@twace.org
Zoe Steer,6iWy1x,4Mp65,Richmond,Zoe_Steer6417@bungar.biz
Anthony Rossi,2NS0Ri,yy6wZ,Innsbruck,Anthony_Rossi3897@deavo.com
Chris Ward,50GRTY,0CgDp,Amarillo,Chris_Ward6207@mafthy.com
Lexi Wilcox,PhtPoA,iA5Af,Fullerton,Lexi_Wilcox2876@liret.org
Carmella Clifton,Aa0Tjz,byveJ,Lakewood,Carmella_Clifton3252@tonsy.org
Aileen Radley,cZupQz,iRYXV,Ontario,Aileen_Radley2291@hourpy.biz
Brad Vincent,jpYgqr,Sb3gY,Henderson,Brad_Vincent5978@hourpy.biz
Maggie Reese,vi5Cuk,RBKcF,Los Angeles,Maggie_Reese5305@nickia.com
Cameron Overson,molCwr,bOWTK,Richmond,Cameron_Overson7994@grannar.com
Aeris Ingham,DHV1zE,GefPN,Otawa,Aeris_Ingham3696@qater.org
Caleb Dickson,MhWq90,dxXRH,Philadelphia,Caleb_Dickson3687@bulaffy.com
Adina London,lVPjwj,ehQcO,New Orleans,Adina_London9939@irrepsy.com
Martin Fleming,VmtxEQ,2Dbx8,Fremont,Martin_Fleming1457@acrit.org
Ally Morley,PjQla7,1JsYO,Arlington,Ally_Morley3902@typill.biz
Alan Warden,iT3OhF,XgUwg,Berlin,Alan_Warden1206@sveldo.biz
Audrey Lewin,MpWB5o,1oV1n,Colorado Springs,Audrey_Lewin579@extex.org
Molly Wood,x7KGse,3FFLV,Innsbruck,Molly_Wood6036@twipet.com
Kurt Upsdell,lN2snp,BjLNu,Los Angeles,Kurt_Upsdell2755@typill.biz
Clint Bailey,T9SheK,c5zdg,Louisville,Clint_Bailey7389@mafthy.com
Kieth Hamilton,X2gpKS,JhgRJ,San Francisco,Kieth_Hamilton8171@gmail.com
Sara Sheldon,8ReLHC,ZxxMf,Richmond,Sara_Sheldon4540@iatim.tech
Mandy Lunt,ai9CJr,JA73T,Omaha,Mandy_Lunt114@deons.tech
Johnathan Egerton,mDfIPz,G2WFo,Madrid,Johnathan_Egerton715@muall.tech
Chloe Radcliffe,7Ws0yk,ULJJF,Salem,Chloe_Radcliffe7921@sveldo.biz
Rosalyn Fenton,AUOyKs,3Kwlf,Anaheim,Rosalyn_Fenton8907@eirey.tech
Tom Armstrong,IP8Axd,K6GqA,Bridgeport,Tom_Armstrong5682@extex.org
Candice Rixon,nZXCwn,zqB8z,Omaha,Candice_Rixon2663@bulaffy.com
Jayden Stanley,7oekN1,E1EC2,Murfreesboro,Jayden_Stanley2219@vetan.org
Danny Tate,lJiGWl,IUvfU,Madrid,Danny_Tate8320@naiker.biz
Chadwick Santos,BGa2ai,TLsk7,Bellevue,Chadwick_Santos8073@acrit.org
Hayden Broomfield,SXsilC,VQbVt,Chicago,Hayden_Broomfield2398@jiman.org
Chester Rothwell,knRhLk,O4oAL,Laredo,Chester_Rothwell9604@atink.com
Caleb Saunders,eHnXaD,Em8Mk,Otawa,Caleb_Saunders4709@ubusive.com
Ronald King,vbkTHw,dn7BK,Toledo,Ronald_King4846@gembat.biz
Doug Lee,wQf5Jj,M4MYo,Albuquerque,Doug_Lee1765@nimogy.biz
Daphne Hopkinson,Xy5pWU,JtdC3,New Orleans,Daphne_Hopkinson4977@extex.org
Lauren Donovan,iSejm1,YY5Yz,Louisville,Lauren_Donovan7791@acrit.org
Jade Rodgers,zqBjZ6,WLqhS,London,Jade_Rodgers6975@supunk.biz
Claire Bishop,HTp2v6,hRb6U,Long Beach,Claire_Bishop6942@nimogy.biz
Oliver Edmonds,KarnJW,IY5TF,Lyon,Oliver_Edmonds2255@fuliss.net
Carter Mitchell,NOPJEt,dS79B,San Bernardino,Carter_Mitchell9880@qater.org
Enoch Kelly,NIwT87,hdznc,Tallahassee,Enoch_Kelly2180@bungar.biz
Lucas Boyle,cHWTGq,NVLWG,New Orleans,Lucas_Boyle9448@kideod.biz
Alan Roberts,wIJeOQ,sqOGB,Lyon,Alan_Roberts7486@famism.biz
Alice Blythe,YzZ5Hb,i8xla,Amarillo,Alice_Blythe8835@nanoff.biz
Estrella Ventura,J5PXN0,nn1kM,Long Beach,Estrella_Ventura4302@bretoux.com
Miley Abbot,ETyEpq,lgbpS,Los Angeles,Miley_Abbot3543@bungar.biz
Ramon Thomson,4BMtK9,wSP1V,Dallas,Ramon_Thomson3709@twipet.com
Hayden Verdon,GANJdP,o0wKV,Honolulu,Hayden_Verdon5123@muall.tech
Erin Grey,YH2F3T,CwayP,El Paso,Erin_Grey696@supunk.biz
Liam Swan,yrvXaw,i3Xyb,San Jose,Liam_Swan7341@gembat.biz
Mark Edmonds,3J97Nq,KXDaY,Las Vegas,Mark_Edmonds7145@naiker.biz
Agnes Johnson,zxjh8U,TMfel,London,Agnes_Johnson6910@vetan.org
Christy Hancock,e22VlA,k9WWK,Charlotte,Christy_Hancock6689@yahoo.com
Jacob Blackwall,WEs55y,purMj,Bucharest,Jacob_Blackwall3643@typill.biz
Nathan Drummond,SaI1Ow,8hl8J,Escondido,Nathan_Drummond8445@kideod.biz
Julia Mcnally,PT1piE,Mk4yB,Quebec,Julia_Mcnally59@grannar.com
Kaylee Radley,trOoIR,tYTzg,Orlando,Kaylee_Radley8534@brety.org
Aileen Martin,iqgbtW,5QT87,Rome,Aileen_Martin5963@joiniaa.com
Angelina Whittle,swvfGC,HQOPq,Henderson,Angelina_Whittle563@dionrab.com
Ronald Potts,9dBH9U,SXyTw,Philadelphia,Ronald_Potts7248@joiniaa.com
Fred Fox,ATOqco,YKeHP,Denver,Fred_Fox2626@guentu.biz
Caleb Whinter,agtKsb,cHRtU,Valetta,Caleb_Whinter5160@hourpy.biz
Taylor Vaughan,DlwHhy,m6fND,Innsbruck,Taylor_Vaughan5596@joiniaa.com
Penny Wilson,999YS2,vjK5D,Houston,Penny_Wilson9809@twipet.com
Dakota Larkin,0Zup2r,GNNNZ,El Paso,Dakota_Larkin7224@bretoux.com
Gil Morgan,0JZFvt,AiW3i,Rochester,Gil_Morgan5204@ovock.tech
Camila Slater,jVkQGR,2LEoW,Pittsburgh,Camila_Slater4514@vetan.org
Chanelle Bentley,b6UqEq,tHgyh,Milwaukee,Chanelle_Bentley7016@jiman.org
Nathan Wilson,uOdTt1,g4rFn,Lakewood,Nathan_Wilson9142@twipet.com
Aiden Carter,eAKGep,0JkdV,Richmond,Aiden_Carter3676@gmail.com
Sloane Lomax,1OOFrE,xwXkG,Jersey City,Sloane_Lomax6034@womeona.net
Kaylee Price,waNzPj,mJJYL,Moreno Valley,Kaylee_Price3301@deavo.com
Ryan Antcliff,a0QBx6,WUHEu,New York,Ryan_Antcliff9845@ovock.tech
Rick Healy,kdFqmp,m5iqm,Lisbon,Rick_Healy458@guentu.biz
Ron Goldsmith,GmRi9e,0fHf1,Memphis,Ron_Goldsmith1624@kideod.biz
Elena Lloyd,GOesxL,oFOQu,St. Louis,Elena_Lloyd767@tonsy.org
Sonya Lucas,0QUOl9,OKfJu,Phoenix,Sonya_Lucas3975@liret.org
Bree Morris,wILeSb,ncvNF,Kansas City,Bree_Morris450@ubusive.com
Lynn Richards,kBxTfP,PhSB3,Louisville,Lynn_Richards8332@yahoo.com
Hazel Saunders,ZODShz,rv0vI,Norfolk,Hazel_Saunders4560@hourpy.biz
Esmeralda Bennett,oSELQ3,56AZt,Tokyo,Esmeralda_Bennett9261@tonsy.org
Enoch Ebbs,4Q8FCL,GhpdH,Omaha,Enoch_Ebbs8422@tonsy.org
Lily Allwood,XIVYIV,HVha7,Cincinnati,Lily_Allwood9183@gompie.com
Elijah Powell,49q5lG,8nlZy,Seattle,Elijah_Powell1618@liret.org
Anabel Terry,ygaEw5,0tfvI,Hayward,Anabel_Terry7454@bulaffy.com
Melody Cavanagh,QnE3wC,Xvh5T,Norfolk,Melody_Cavanagh3814@tonsy.org
Chad Kidd,u7w4IE,zLGU0,Hayward,Chad_Kidd8566@corti.com
Liv Holt,7cMNCd,DTO9g,Moreno Valley,Liv_Holt1193@mafthy.com
Jacob Wilson,Kpk6Ij,Prqrg,Venice,Jacob_Wilson6811@kideod.biz
Chuck Lloyd,OZPksd,sk3FS,Indianapolis,Chuck_Lloyd9819@bauros.biz
Jack Foxley,UfZWy2,7gWwg,Seattle,Jack_Foxley5598@grannar.com
Mike Watson,V0IVbM,1VPe6,Arlington,Mike_Watson6959@ovock.tech
Rufus Riley,HnirZh,REWrM,Salem,Rufus_Riley3340@grannar.com
Caitlyn Strong,ZtSj2S,hBjYB,Memphis,Caitlyn_Strong6627@typill.biz
Hayden Gallacher,auNU5T,0RFep,Stockton,Hayden_Gallacher9100@ovock.tech
Oliver Holmes,iMMLOU,Bq0IQ,San Antonio,Oliver_Holmes6935@guentu.biz
Summer Buckley,HKalda,cSwy2,New York,Summer_Buckley6634@kideod.biz
Ilona Umney,QXpmLZ,MoFLj,Orlando,Ilona_Umney3985@vetan.org
Lily Lindop,y0KJEw,u2bgI,Santa Ana,Lily_Lindop1806@nimogy.biz
Marilyn Neville,mOr45v,O7YP2,Glendale,Marilyn_Neville3883@gembat.biz
Tony Cann,nJduLk,5tt2D,San Bernardino,Tony_Cann9026@corti.com
Daron Cadman,8yEc3F,6Mqh1,Lincoln,Daron_Cadman628@bretoux.com
Phillip Hood,CHqCan,wLM2L,Bakersfield,Phillip_Hood4916@bauros.biz
Kassandra Lucas,O9EzuD,hhfDD,Pittsburgh,Kassandra_Lucas6730@gompie.com
Rihanna Benson,bLmiiL,SQqMv,Salt Lake City,Rihanna_Benson1881@naiker.biz
Caleb Palmer,EUkDSE,Jf4ks,Atlanta,Caleb_Palmer5233@bretoux.com
Cedrick Weasley,SY4Npy,wiD1w,Indianapolis,Cedrick_Weasley3243@jiman.org
Daphne Chappell,fZm6IH,dDnlj,Jacksonville,Daphne_Chappell1698@bulaffy.com
Rebecca Haines,e3mEYf,xfPMX,Fayetteville,Rebecca_Haines5914@ubusive.com
Penny Owens,xCQhJR,aJCNM,Santa Ana,Penny_Owens8803@ovock.tech
Barry Gosling,v2iTG3,zb34G,Hollywood,Barry_Gosling477@jiman.org
Hazel Murray,GQ6KVl,L4WRl,Reno,Hazel_Murray3742@eirey.tech
Manuel Asher,iDxyrI,bFQXU,Bellevue,Manuel_Asher9879@bungar.biz
Chadwick Lambert,0MQbZQ,WZtlO,Los Angeles,Chadwick_Lambert5151@muall.tech
Lucy Lloyd,sjnNYI,fEFO0,Prague,Lucy_Lloyd3791@acrit.org
Erin Norburn,ZskgIw,aY8gN,San Francisco,Erin_Norburn7479@brety.org
Estrella Tutton,N9tmbD,uWUCg,Sacramento,Estrella_Tutton3511@jiman.org
Lara Saunders,Pdhhjx,MzalS,Cincinnati,Lara_Saunders3342@cispeto.com
Olivia Edmonds,ICm47o,0Jxu4,Prague,Olivia_Edmonds6213@jiman.org
Chuck Moran,dofWnL,gxBcc,Dallas,Chuck_Moran10@womeona.net
Anthony Needham,HJvERz,rYwCS,Toledo,Anthony_Needham8060@ubusive.com
Raquel Stark,CDNGe1,FH5LX,Murfreesboro,Raquel_Stark8044@liret.org
Bryce Thorne,I1MqLz,x81IN,Reno,Bryce_Thorne2163@sveldo.biz
Mabel Richards,eutwnS,q7WnT,Lakewood,Mabel_Richards9701@hourpy.biz
Mark Glass,MYi20N,ZHns2,Valetta,Mark_Glass7167@dionrab.com
Danielle Ashley,tVC6fj,gtzLd,Salt Lake City,Danielle_Ashley8918@bretoux.com
Lillian Armstrong,4xVhog,Up9kx,San Diego,Lillian_Armstrong6399@gompie.com
Sebastian Higgs,F1PHrz,BJAC5,Lyon,Sebastian_Higgs7424@supunk.biz
Kieth Stark,JXRzFy,rRf9s,Paris,Kieth_Stark1923@iatim.tech
Jane Lewis,OIJBN8,TYneZ,Sacramento,Jane_Lewis2544@tonsy.org
Gemma Latham,Zu8vAD,h0LzS,Las Vegas,Gemma_Latham8195@joiniaa.com
Chester Todd,Kszh6Z,7acTS,Fremont,Chester_Todd2545@typill.biz
Benjamin Rodwell,Nk2gOF,mLBIA,Springfield,Benjamin_Rodwell8147@deons.tech
Rufus Potts,BNsgdV,BVhuP,Boston,Rufus_Potts9332@yahoo.com
Nate Harrison,MAQ46n,NW4R6,Bucharest,Nate_Harrison6383@liret.org
Britney Todd,wj3luO,1LqUX,Norfolk,Britney_Todd983@sveldo.biz
Aurelia Carter,3yO3Fj,fJjDE,Minneapolis,Aurelia_Carter9098@womeona.net
Gloria Edwards,O7bFbv,YtPS0,Madrid,Gloria_Edwards8075@nanoff.biz
Daniel Donnelly,Uo3ir9,YbLKx,Detroit,Daniel_Donnelly7705@typill.biz
Josh Hunter,1hnBbD,zJzQo,Jacksonville,Josh_Hunter7570@guentu.biz
Tyson Chappell,LHM5h7,DoQkl,El Paso,Tyson_Chappell4846@corti.com
Rufus Norman,S4Re3k,DY1tt,Phoenix,Rufus_Norman4236@twipet.com
Tyson Knott,ndqqUk,jXKdN,Arlington,Tyson_Knott3472@naiker.biz
Sasha Robinson,lsI3Rg,IgqOU,Norfolk,Sasha_Robinson8456@bretoux.com
Nick Gilmour,1vyf8U,sHtHz,Henderson,Nick_Gilmour5176@ovock.tech
Phoebe Wild,qbReV7,iJnVP,Madrid,Phoebe_Wild3240@nanoff.biz
Gladys Rees,5obCmY,aviYS,San Jose,Gladys_Rees1626@twipet.com
Destiny Simpson,m9Lmfy,QWU8d,Los Angeles,Destiny_Simpson4055@ovock.tech
Johnny Wright,Bp7yDD,1sxiP,Moreno Valley,Johnny_Wright4814@dionrab.com
Elly Tobin,hwmma0,LqSZ7,Milwaukee,Elly_Tobin1475@kideod.biz
Alba Reyes,QVlKj5,U3rPA,Lancaster,Alba_Reyes8478@guentu.biz
Bethany Milner,ZRsoly,wIvn3,Phoenix,Bethany_Milner6504@sveldo.biz
Ron Bradley,y2NK80,RsskL,Fayetteville,Ron_Bradley4473@cispeto.com
Britney Gregory,B7WOog,zBxSa,Albuquerque,Britney_Gregory559@twace.org
Eduardo Lee,FVr3ba,a53Ok,Fayetteville,Eduardo_Lee3153@twace.org
George Fox,FETWJW,XJKi1,Atlanta,George_Fox6582@kideod.biz
Tony Harrison,aWaMkg,6TvSO,Las Vegas,Tony_Harrison4878@nanoff.biz
Mason Whitehouse,D4m359,TuQ2i,Springfield,Mason_Whitehouse2291@sheye.org
Eduardo Rodwell,rzIXfh,XCXEI,Paris,Eduardo_Rodwell6840@supunk.biz
Alexander Varndell,ZRgSeW,GcTnX,Honolulu,Alexander_Varndell5425@cispeto.com
Sabrina Fields,dZgHhW,O1i5L,San Diego,Sabrina_Fields5873@corti.com
Christy Power,XGZzMc,B5M39,Richmond,Christy_Power8383@grannar.com
Chester Anderson,4MSD15,Rb6b4,Honolulu,Chester_Anderson7219@atink.com
Daron Ogilvy,JumhQ7,fMVcO,Oakland,Daron_Ogilvy7160@supunk.biz
Lucas Vinton,jtRAfL,HYQBG,Milwaukee,Lucas_Vinton4765@bauros.biz
Ema Murray,YhgwnP,x1gcC,Los Angeles,Ema_Murray2238@famism.biz
Claire Hopkinson,jrBdnj,eIA6Y,Bellevue,Claire_Hopkinson8666@deavo.com
Manuel Jones,9W2e6e,dJ9tE,Sacramento,Manuel_Jones368@infotech44.tech
Adeline Wade,L0y2v7,BnnSZ,Pittsburgh,Adeline_Wade6525@brety.org
Liam Wild,Eol7nN,iUo0Z,Chicago,Liam_Wild9749@infotech44.tech
Danielle Dempsey,hzCdNZ,00TLD,Miami,Danielle_Dempsey3375@extex.org
Bryce Dickson,4b6Dim,QhHHl,Richmond,Bryce_Dickson6540@ubusive.com
Valentina Potts,MgzX0P,uHTCe,Lakewood,Valentina_Potts3099@qater.org
Johnathan Pond,D1qw8M,v6GRO,Otawa,Johnathan_Pond6553@qater.org
Nathan Eaton,wL6xDM,M6Okw,Irving,Nathan_Eaton8036@jiman.org
Sadie Egerton,RPYBNT,Ebt7f,Springfield,Sadie_Egerton6669@tonsy.org
Aiden Fowler,DfuA9p,e0um9,Arlington,Aiden_Fowler3070@fuliss.net
Sonya Graham,jq9fj2,2VUOq,Oklahoma City,Sonya_Graham5604@joiniaa.com
Natalie Chadwick,NYs0Rk,4KcrE,Laredo,Natalie_Chadwick4233@ovock.tech
Camden Radcliffe,m0eRen,1opax,Long Beach,Camden_Radcliffe1955@gembat.biz
Gloria Emmott,x5g7SF,FUGKy,Paris,Gloria_Emmott9097@jiman.org
Johnny Harrison,wXqusv,1MlKG,Glendale,Johnny_Harrison2685@corti.com
Bernadette Tailor,KPp4Uv,Z6XcD,Madison,Bernadette_Tailor7565@nanoff.biz
Kate Morris,aXZhEJ,pvq58,Atlanta,Kate_Morris8360@nimogy.biz
Charlotte Potter,GPnwcm,RxUTx,Cincinnati,Charlotte_Potter8527@fuliss.net
Elly Whitmore,D6qlGF,AJnza,Berna,Elly_Whitmore5499@sheye.org
Sylvia Saunders,DCXs8u,Itt01,Milwaukee,Sylvia_Saunders8310@bungar.biz
Ron Michael,niZKAK,nnyx0,San Francisco,Ron_Michael7880@grannar.com
Sarah Ulyatt,6vbDFL,i1WPJ,Stockton,Sarah_Ulyatt8116@bulaffy.com
Mavis Ogilvy,I97yD2,tEJ7R,Seattle,Mavis_Ogilvy9412@twipet.com
Julius Alcroft,9YOAhW,1Sn4d,Murfreesboro,Julius_Alcroft14@guentu.biz
Harry Mills,ZPYD23,s85OQ,Atlanta,Harry_Mills4289@infotech44.tech
Ivette Harvey,41hdkn,Ffa7Q,San Diego,Ivette_Harvey1589@dionrab.com
Remy Chapman,2VS4Gf,fCmIl,Baltimore,Remy_Chapman2041@ovock.tech
Roger Hepburn,8tCzzm,Shc5b,Louisville,Roger_Hepburn7659@nanoff.biz
Anne Baxter,FMI6yW,Bb7ee,Reno,Anne_Baxter2195@fuliss.net
Allison Grant,F7txCt,9XnjE,Lancaster,Allison_Grant8550@infotech44.tech
Roger Goodman,1t6NJW,BY1Hx,Portland,Roger_Goodman2421@bulaffy.com
Greta Riley,El89Cc,JiKw7,Hayward,Greta_Riley1115@cispeto.com
Miriam Potts,Jlgw5k,sYLlL,Tulsa,Miriam_Potts3972@muall.tech
Marla Dowson,4ZGZyQ,xo8jD,Worcester,Marla_Dowson7520@vetan.org
Valerie Hobbs,vfa8IB,Qk117,Lyon,Valerie_Hobbs7787@twace.org
Chester Leslie,lDgYUV,sI7Ap,Portland,Chester_Leslie4262@fuliss.net
Erin Alcroft,2bOHwY,0z6Z0,Dallas,Erin_Alcroft2042@kideod.biz
Tyson Thorne,9QqCbJ,rzLAl,Jacksonville,Tyson_Thorne4419@qater.org
Mason Samuel,Pi43zp,qiX62,Atlanta,Mason_Samuel7478@gompie.com
Alma Walter,Akp5bS,hRlYO,Wien,Alma_Walter5067@grannar.com
Eileen Chappell,Lef0Kl,9dDMy,Minneapolis,Eileen_Chappell4310@elnee.tech
Chadwick Osman,0g93yQ,XlOQb,Atlanta,Chadwick_Osman8769@supunk.biz
Caleb Jarvis,YI3008,pbYFs,Venice,Caleb_Jarvis1695@infotech44.tech
Johnathan Stone,sN8eXN,HO6Ui,Norfolk,Johnathan_Stone1764@typill.biz
Harvey Duvall,C1d39h,UcaKo,Sacramento,Harvey_Duvall587@bretoux.com
Harvey Alldridge,q5i1B4,vm3oH,Orlando,Harvey_Alldridge2148@jiman.org
Lucy Lewis,5YN0sq,oC6Dc,Worcester,Lucy_Lewis8802@yahoo.com
Javier Mccall,ItQMA7,sRF2M,Bucharest,Javier_Mccall2068@bulaffy.com
Jacqueline Adams,XylQ7P,4zE0S,Tokyo,Jacqueline_Adams229@iatim.tech
Sloane Redwood,IT134a,fjmxb,Tokyo,Sloane_Redwood7425@atink.com
Andie Preston,ohjwKe,WX6GZ,Jersey City,Andie_Preston730@eirey.tech
Johnathan Brett,vSpEcX,FrVbc,Colorado Springs,Johnathan_Brett3279@deavo.com
Ronald Gilmour,8OtX7y,ef8UF,Washington,Ronald_Gilmour5447@grannar.com
Callie Harrison,XiW0LJ,dFzD4,Columbus,Callie_Harrison6175@supunk.biz
Sebastian Beal,QL8pyd,KieCA,London,Sebastian_Beal8026@guentu.biz
Jack Olivier,U3nPxE,PRIvk,Berlin,Jack_Olivier3518@bungar.biz
Henry Saunders,RzXBjE,LRrHd,Oakland,Henry_Saunders234@atink.com
Chester Saunders,EElsdG,sYpsk,Bridgeport,Chester_Saunders1401@sveldo.biz
Adalind Brooks,mlEluy,b8G7w,Scottsdale,Adalind_Brooks1101@vetan.org
Joseph Fields,1Dd1xs,on3Wl,Fremont,Joseph_Fields5535@fuliss.net
Taylor Rigg,h0FXTQ,JtWJ5,San Antonio,Taylor_Rigg5658@sveldo.biz
Irene Larkin,OyzWy3,Z81cz,Minneapolis,Irene_Larkin5494@ovock.tech
Gwen Hunt,ERo9hx,THajt,Portland,Gwen_Hunt3296@jiman.org
Jenna Lucas,wwkat7,qYcxT,San Jose,Jenna_Lucas8212@gembat.biz
Goldie Edler,BKPwqB,fOXTq,Richmond,Goldie_Edler5265@tonsy.org
Rose Whitmore,JZk2UT,8lF99,Cincinnati,Rose_Whitmore6134@gmail.com
Celina Pierce,O9e9Fu,ELWnA,Innsbruck,Celina_Pierce9381@vetan.org
Mike Verdon,DTCXr1,QLlCf,Oklahoma City,Mike_Verdon7602@ovock.tech
Doug Brown,7qHvDp,gq8p8,San Francisco,Doug_Brown1428@gmail.com
Adalie Mcneill,TpJrhH,Nyesj,Phoenix,Adalie_Mcneill6002@nimogy.biz
Anabel Vaughan,o6oR9o,gqsLR,Portland,Anabel_Vaughan4643@nickia.com
Carrie Clifford,nAyuai,47j76,Quebec,Carrie_Clifford3739@extex.org
Henry Funnell,sYSRUB,mBy66,Hollywood,Henry_Funnell246@famism.biz
Percy Bentley,DSduNX,uUZrj,Phoenix,Percy_Bentley3486@gembat.biz
Matthew Kidd,6uR4S9,Lsmm8,Las Vegas,Matthew_Kidd5480@bulaffy.com
Cedrick Howard,5Wl4eA,h74UD,Minneapolis,Cedrick_Howard4622@bauros.biz
Lexi Jennson,Go0dvT,RBlvw,San Francisco,Lexi_Jennson8663@naiker.biz
Samara Lindop,RQI3bt,t7XoH,London,Samara_Lindop1552@zorer.org
Julian Denton,x3DeJC,T23Pv,Scottsdale,Julian_Denton498@grannar.com
George Spencer,cCGTp4,GgXoJ,Bridgeport,George_Spencer4511@guentu.biz
Margaret Summers,9It2HO,yBhe7,London,Margaret_Summers3356@sveldo.biz
Harvey Latham,ZmmBH8,68wXK,Innsbruck,Harvey_Latham4418@acrit.org
Greta Addison,i2zMVy,RSHZJ,Fort Lauderdale,Greta_Addison381@grannar.com
Clarissa Richards,eeAf1K,w4U1o,Colorado Springs,Clarissa_Richards1049@atink.com
Jack Allwood,iN91Ey,VtAix,Glendale,Jack_Allwood7489@hourpy.biz
Luke Power,1J5Aqs,CRA6m,Oklahoma City,Luke_Power190@jiman.org
Danny Booth,8zzfaq,pw1l9,Ontario,Danny_Booth5848@yahoo.com
Jacob Watson,RIey2e,7kD1s,Albuquerque,Jacob_Watson9839@twipet.com
Carl Eaton,0Qjibd,QOzHC,Boston,Carl_Eaton4238@bungar.biz
Elena Mackenzie,9rMZGV,25Wz7,Omaha,Elena_Mackenzie8756@bretoux.com
Anthony Cox,KRxezp,OkCX4,London,Anthony_Cox6339@bungar.biz
Rhea Benson,RO4Hu5,qmFoT,Irving,Rhea_Benson9534@typill.biz
Zara Mcgregor,uxVdKC,8zD78,Tulsa,Zara_Mcgregor7287@guentu.biz
Jamie Radcliffe,ByB6aV,G2uA5,Charlotte,Jamie_Radcliffe918@gompie.com
Britney Pope,LztgHM,6Sq7s,Ontario,Britney_Pope3520@sheye.org
Natalie Glynn,vLNaTc,PlZBC,Berlin,Natalie_Glynn9695@supunk.biz
Tyson Partridge,rduU4l,FnuXX,Baltimore,Tyson_Partridge4024@eirey.tech
Lauren Dann,yt3z2X,e5sL4,London,Lauren_Dann7118@mafthy.com
Caitlyn Hilton,Dgau1j,IwiF1,San Antonio,Caitlyn_Hilton45@sheye.org
Ethan Horton,jUgmzG,QZLaK,Arlington,Ethan_Horton404@naiker.biz
Marvin Rogers,LZTP6J,vCTSm,Stockton,Marvin_Rogers7150@joiniaa.com
Elijah Alexander,AUIQOa,JVqJ7,Rome,Elijah_Alexander5214@twipet.com
Marla Roberts,jq1snL,vkgxn,Escondido,Marla_Roberts4698@fuliss.net
Alison Clarke,xYAP79,J3Q9x,Murfreesboro,Alison_Clarke7898@fuliss.net
Julianna Ventura,zHVBWI,Xqsmf,Wien,Julianna_Ventura2109@twace.org
Allison Plant,etoOmq,ryXL7,Wien,Allison_Plant7268@naiker.biz
Rocco Parr,KPrQaP,njPXn,Glendale,Rocco_Parr495@qater.org
Tyler Abbey,gux9Na,oN97Z,Anaheim,Tyler_Abbey9893@hourpy.biz
Alan Horton,7Uv7Dd,BpXTD,Norfolk,Alan_Horton3285@ubusive.com
Liv Yard,RYBQ7z,DCbSN,Venice,Liv_Yard2530@grannar.com
Oliver Anderson,32RlcR,wT0Hk,Innsbruck,Oliver_Anderson6570@iatim.tech
Tiffany Savage,i8NrAf,r4mKx,Reno,Tiffany_Savage1220@bauros.biz
Paige Little,a2sjyH,O6Gsd,San Antonio,Paige_Little7870@nickia.com
Bryon Shields,ATYX3X,kqzG9,Columbus,Bryon_Shields7224@gmail.com
Michaela Drew,Lw3Qt0,8v3wO,Stockton,Michaela_Drew8313@cispeto.com
Nathan Powell,uc81hf,I29AP,Minneapolis,Nathan_Powell3898@acrit.org
Helen Gavin,ewaKRc,Zm9kV,Omaha,Helen_Gavin47@vetan.org
Wade Upton,mV3inQ,vXu0t,Springfield,Wade_Upton5041@elnee.tech
Natalie Allcott,Ab6gdA,iPi4w,Nashville,Natalie_Allcott9791@joiniaa.com
Percy Wheeler,tTCz0g,oxgmq,Kansas City,Percy_Wheeler4896@atink.com
Tania Simpson,kTQfJU,USFV9,Wien,Tania_Simpson7664@elnee.tech
Daron Johnson,rQInK5,Rt6Y2,Lincoln,Daron_Johnson644@sheye.org
Brooklyn Kaur,zK01k8,sguKp,Los Angeles,Brooklyn_Kaur7640@tonsy.org
Vicky Devonport,cfP4ZY,8vM6b,Memphis,Vicky_Devonport247@mafthy.com
Lucy Denton,kFcRGS,aHavm,Bucharest,Lucy_Denton1753@tonsy.org
Rylee Oliver,SfqgZv,1FXBQ,Memphis,Rylee_Oliver7284@gompie.com
Blake Mcleod,kWaDVM,zx9nW,Jacksonville,Blake_Mcleod325@bauros.biz
Penelope Holt,RdcyLT,kMtRJ,San Bernardino,Penelope_Holt6913@tonsy.org
Domenic Alexander,lEso6S,0saIf,Nashville,Domenic_Alexander3478@jiman.org
Rylee Lynn,RNJmZC,01m5p,Amarillo,Rylee_Lynn3006@kideod.biz
Nina Cann,I5XoVK,lFuKF,El Paso,Nina_Cann3808@extex.org
Johnathan Hale,3rOILC,2wUXL,Colorado Springs,Johnathan_Hale1246@nimogy.biz
Jade Russell,ITvv6D,igp2v,Norfolk,Jade_Russell2416@bungar.biz
Sebastian Rodgers,hsJJ73,f1Awa,Washington,Sebastian_Rodgers6290@irrepsy.com
Anthony Talbot,1k5f7o,qmgJG,San Antonio,Anthony_Talbot862@kideod.biz
Jacqueline Flack,JVw4Ka,Q45QH,Kansas City,Jacqueline_Flack344@supunk.biz
Payton Santos,DKTgkE,chbtY,Lincoln,Payton_Santos9252@ubusive.com
Mike Butler,UoLZrK,pkBXj,Louisville,Mike_Butler4881@sheye.org
Hailey Yard,YONjjR,UWtq1,San Bernardino,Hailey_Yard84@bungar.biz
Lillian Ingham,EF0fWA,o5iq3,Henderson,Lillian_Ingham9480@infotech44.tech
Harmony Gunn,6vi8vX,0C7ex,Los Angeles,Harmony_Gunn154@kideod.biz
Ronald Grady,rQ6oBO,jnAlb,Innsbruck,Ronald_Grady7876@deavo.com
Harry Vangness,8V0gTs,9cYg0,Kansas City,Harry_Vangness5461@liret.org
Carl Bishop,QvTG5h,9VuwZ,San Antonio,Carl_Bishop1735@sheye.org
Elena Forester,dFJcYh,7Mmrt,Indianapolis,Elena_Forester4587@gmail.com
Carissa Sloan,bDSIDy,1Li6j,Sacramento,Carissa_Sloan2279@bauros.biz
Tyler Hall,uV8e2O,V4SzQ,Berlin,Tyler_Hall2971@joiniaa.com
Julius Isaac,U50maR,RQ0lX,New Orleans,Julius_Isaac3981@ovock.tech
Jacob Groves,nnJUiz,6Ov9l,Escondido,Jacob_Groves2537@grannar.com
Grace Eyres,Z6MJTE,qOCm7,London,Grace_Eyres8974@zorer.org
Maya Uttridge,vwhAwG,4YoRq,Bucharest,Maya_Uttridge5873@dionrab.com
Eden Freeburn,h5KgTi,cGfM8,San Bernardino,Eden_Freeburn8640@sveldo.biz
Matthew Collins,vWa1nz,Suow9,Innsbruck,Matthew_Collins4529@gompie.com
Erick Richards,UdWFcN,E4Q45,New Orleans,Erick_Richards7964@nanoff.biz
Sebastian Shea,R1Io4F,1vovc,Philadelphia,Sebastian_Shea621@iatim.tech
Robyn Weasley,wtXiTJ,W7W5X,Albuquerque,Robyn_Weasley8647@iatim.tech
Aileen Robertson,Q1qtZX,eTybl,Lincoln,Aileen_Robertson2057@jiman.org
Aiden Flett,Xu1Y8s,vriKe,San Diego,Aiden_Flett7834@atink.com
Michaela Pearson,WYWuXV,3Oeru,New York,Michaela_Pearson1563@muall.tech
Jenna Pearce,OuIGSI,4C1NA,Houston,Jenna_Pearce282@twipet.com
Natalie Stanley,4QHjAY,8KdAB,Baltimore,Natalie_Stanley3963@cispeto.com
Rocco Farrant,4MtcEP,csfI2,Orlando,Rocco_Farrant4718@joiniaa.com
Samantha Allen,tbl8OW,K5yH3,Innsbruck,Samantha_Allen4647@deavo.com
Tom Veale,XcbL0B,p1eQF,Oakland,Tom_Veale69@vetan.org
Henry Needham,vTNPq0,igPHj,Madison,Henry_Needham494@elnee.tech
Amelia Barclay,BoQT3a,6HuFE,Salem,Amelia_Barclay8087@womeona.net
Javier Morgan,55shrl,2pk3F,Madrid,Javier_Morgan4422@hourpy.biz
Ethan Turner,jQxj23,RH6ue,Garland,Ethan_Turner4420@vetan.org
Daron Rixon,frxIUC,YoSh0,Prague,Daron_Rixon2998@jiman.org
Alison Osmond,6rWADC,bav1Y,Seattle,Alison_Osmond1525@twipet.com
Miley Howard,UuXMOO,Z4jVa,London,Miley_Howard6381@corti.com
Lexi Roth,o46cbp,VrjL9,Escondido,Lexi_Roth1492@eirey.tech
Marla Hill,61pRrc,6GeqB,Tokyo,Marla_Hill1222@gmail.com
Tony Cunningham,nkIf2F,BepDa,Anaheim,Tony_Cunningham4228@sveldo.biz
Winnie Ellis,hAiq6b,AV78U,Sacramento,Winnie_Ellis4504@typill.biz
Rylee Bishop,lvgyDv,oxCZg,Chicago,Rylee_Bishop646@mafthy.com
Bryon Shaw,zfjfrI,IJ5Gq,Portland,Bryon_Shaw2177@eirey.tech
Juliette Partridge,eSLeeO,433Bd,Lakewood,Juliette_Partridge8898@supunk.biz
Aisha Lee,87kc3m,YoHp8,Fullerton,Aisha_Lee8231@nanoff.biz
Matt Rossi,FnJTUQ,omxHo,Escondido,Matt_Rossi406@deavo.com
Rufus Bailey,Q92Akq,wzWj6,Huntsville,Rufus_Bailey771@zorer.org
Kimberly Stevenson,SvLTnr,5zGfu,London,Kimberly_Stevenson822@ovock.tech
Nick Little,3jIke7,Wd7qs,Pittsburgh,Nick_Little7235@eirey.tech
Faith Yates,ZgTQnR,6KeKC,Orlando,Faith_Yates2881@iatim.tech
Juliette Waterhouse,8Utryx,yzpAN,Denver,Juliette_Waterhouse3786@eirey.tech
Anthony Turner,hJI8QR,LZAwT,Lisbon,Anthony_Turner6779@dionrab.com
Rebecca Mould,RYqDls,fa7Rt,Lisbon,Rebecca_Mould1144@bulaffy.com
Vera Ward,FGU0rC,hRyAe,Hayward,Vera_Ward9956@ovock.tech
Brooklyn Vaughan,8lQR6a,niSAc,Madrid,Brooklyn_Vaughan8859@zorer.org
Clint Clifton,9V3CjW,JvwsB,Lancaster,Clint_Clifton9619@ubusive.com
Barney Fleming,5aPqIp,rSYCE,Honolulu,Barney_Fleming9238@twace.org
Mark Attwood,7ZCbZP,GfJsm,Amarillo,Mark_Attwood3427@nickia.com
Sloane Newton,60QC0p,MtKTE,El Paso,Sloane_Newton8662@gompie.com
Ciara Cork,XiDKgL,IL97F,Zurich,Ciara_Cork606@gmail.com
Harry Wilde,LVCOHt,0rO5C,Anaheim,Harry_Wilde2846@atink.com
Martin Lewin,R5OFap,H10sG,Madrid,Martin_Lewin1089@bungar.biz
Jayden Watson,XcRbQz,NcRPG,San Diego,Jayden_Watson7054@typill.biz
Julian York,FoWjvq,4XQAt,Washington,Julian_York1277@extex.org
Bryon Niles,vVVMBF,BmIZB,Garland,Bryon_Niles1474@bulaffy.com
Mason Vallory,0z5mlv,WEAyd,Denver,Mason_Vallory1616@eirey.tech
Vanessa Parker,D6WMEi,U7nQ3,Ontario,Vanessa_Parker1150@sveldo.biz
Phillip Woods,IsYcJj,9IBRh,Madison,Phillip_Woods9691@atink.com
Henry Blackwall,03SfwQ,lp8ed,Hollywood,Henry_Blackwall8878@deavo.com
Shannon Kennedy,HzzK3W,XDCRw,Chicago,Shannon_Kennedy6714@sveldo.biz
Colleen Russell,PBV4Wc,xwLEf,Richmond,Colleen_Russell1308@gompie.com
Priscilla Kelly,CmPW6g,4ct8y,Rochester,Priscilla_Kelly2983@supunk.biz
Chuck Lewis,ciIzvX,BXsR2,Honolulu,Chuck_Lewis9157@brety.org
Aiden Long,ExvOTe,bcme8,Saint Paul,Aiden_Long8834@nimogy.biz
Hank Waterhouse,Ga0ZRP,N8OOC,San Diego,Hank_Waterhouse8243@eirey.tech
Cadence Rowe,TOMDJE,rWI2C,Santa Ana,Cadence_Rowe8357@mafthy.com
Olivia Niles,mXoCxi,iQEPY,New York,Olivia_Niles7905@eirey.tech
Noah Shelton,XN8v7W,ICIXK,Rochester,Noah_Shelton3937@muall.tech
Denis Warden,mnCygq,oxEyS,Madison,Denis_Warden3538@iatim.tech
Bree Kidd,MLtTpB,gAoLX,Fayetteville,Bree_Kidd6856@vetan.org
Regina Hardwick,mU2M1h,U83hz,Omaha,Regina_Hardwick7843@brety.org
Janice Olson,bbHa7l,fy1fQ,Cincinnati,Janice_Olson3810@gembat.biz
Faith Mills,AuAlVo,YUvdq,Indianapolis,Faith_Mills8683@kideod.biz
Abdul Uttley,KU5mps,WXABD,Jersey City,Abdul_Uttley5119@ubusive.com
Bridget Osmond,sVS8Gx,tGLHz,Madrid,Bridget_Osmond9958@dionrab.com
Anthony Morrow,DMeqVB,nNUmU,Ontario,Anthony_Morrow2577@atink.com
Mark Chappell,s6cHDh,Mfdlh,Bucharest,Mark_Chappell83@infotech44.tech
Darlene Tennant,RFowWU,ovvKY,Lisbon,Darlene_Tennant9321@infotech44.tech
Maddison Baker,VCeJ9p,SL2ZG,Albuquerque,Maddison_Baker3265@nickia.com
Bryce Shelton,2SolWl,xWSXx,Milano,Bryce_Shelton5408@iatim.tech
Piper Wood,mCxERa,Vle4i,New Orleans,Piper_Wood4386@cispeto.com
Alan Holmes,FIbA8b,rxqSe,Otawa,Alan_Holmes3379@naiker.biz
Mara Dixon,CN96k1,SA1qP,Portland,Mara_Dixon8592@zorer.org
Leroy Noon,h7cYnk,GRkI1,Berlin,Leroy_Noon1508@twace.org
Analise Lomax,c5P7eQ,JAHub,Norfolk,Analise_Lomax8306@elnee.tech
Jack Graham,PD1gZm,3p9tb,Toledo,Jack_Graham7176@gompie.com
Trisha Isaac,ZtAqDq,TYgzo,St. Louis,Trisha_Isaac7658@deavo.com
Elise Todd,2eW9DS,VRegs,Berlin,Elise_Todd3977@tonsy.org
Sylvia Patel,BFaBMW,hH2wO,Seattle,Sylvia_Patel2327@yahoo.com
Rick Marshall,qOOVVb,oYiJl,Milano,Rick_Marshall1237@muall.tech
Eduardo Coates,q6CaqH,y1KfG,Berlin,Eduardo_Coates2613@cispeto.com
Mark Campbell,ffIIqn,vnnM6,Fremont,Mark_Campbell7598@atink.com
Lana Lunt,Vcj09G,ZeK6i,Chicago,Lana_Lunt2944@muall.tech
Camden Vallins,IZxJAT,RwC52,Salem,Camden_Vallins4152@gmail.com
Camellia Thorpe,J0sRfY,tofrN,Richmond,Camellia_Thorpe3468@grannar.com
Chad Moran,A4oxVJ,SD7Lh,Jersey City,Chad_Moran7541@mafthy.com
Liv Parker,fbdsmA,DfelD,Dallas,Liv_Parker6953@gmail.com
Kurt Davies,V3zfyr,aNiNL,San Jose,Kurt_Davies7547@sveldo.biz
Marvin Jones,CM8CX3,kS0hO,Springfield,Marvin_Jones2611@typill.biz
Sadie Uttley,O1Kdqu,CfEx2,Salt Lake City,Sadie_Uttley7409@corti.com
Rowan Denton,UByl79,PM7JM,Santa Ana,Rowan_Denton2936@joiniaa.com
Helen Davies,3k82Wb,6hTGr,Kansas City,Helen_Davies1052@famism.biz
Iris Callan,dRneQ2,5Rslz,Reno,Iris_Callan7762@gmail.com
Doris Kirby,lAfc8k,2Eo3h,Quebec,Doris_Kirby8619@sveldo.biz
Manuel Rycroft,6lSJms,Cln0G,Hayward,Manuel_Rycroft5383@brety.org
Lynn Leslie,bnadfq,vZl8Y,Tallahassee,Lynn_Leslie8586@corti.com
Violet Andrews,bY258R,c1Uuw,Memphis,Violet_Andrews1139@nanoff.biz
Chuck Thatcher,p5a3a4,guBto,Washington,Chuck_Thatcher7785@acrit.org
Anthony Robertson,RTIFcV,7mK68,Bellevue,Anthony_Robertson4959@typill.biz
Mark Baker,yVbfAe,VL7hy,New Orleans,Mark_Baker5544@supunk.biz
Joyce Saunders,2fzuMk,dRP7i,Scottsdale,Joyce_Saunders5212@bungar.biz
Payton Matthews,hdgmRz,x4fxJ,Ontario,Payton_Matthews6207@grannar.com
Kimberly Allen,5DcQlu,7Ovgx,Columbus,Kimberly_Allen4382@vetan.org
Joy Irwin,0dwWlp,C0rxU,Boston,Joy_Irwin6317@joiniaa.com
Samantha Benson,ABif5t,iXfTA,St. Louis,Samantha_Benson676@tonsy.org
George Abbot,shEITX,aZ47n,Lisbon,George_Abbot1273@sveldo.biz
Hannah Shields,mq7R4u,O9FWC,Tulsa,Hannah_Shields6312@vetan.org
Ilona Pond,q9n1qo,HGBv4,San Francisco,Ilona_Pond3885@tonsy.org
Luke Wood,itkhyx,0JOAY,Philadelphia,Luke_Wood2807@acrit.org
Jacob Edwards,aQPi6C,zL38T,Fremont,Jacob_Edwards7030@tonsy.org
Lucy Collins,CJDP2M,wsbnt,Innsbruck,Lucy_Collins7403@joiniaa.com
Ramon Hewitt,udKEmr,uW5yh,Rome,Ramon_Hewitt5266@hourpy.biz
Sofia Stevenson,TkTEiE,c0eZG,Venice,Sofia_Stevenson1472@gompie.com
Owen Lakey,ay74Zb,T37XP,Rochester,Owen_Lakey9228@typill.biz
Rufus Darcy,Gjp9MZ,sOISo,Valetta,Rufus_Darcy7746@eirey.tech
Liam Sheldon,YRvX3J,ALlqM,Bridgeport,Liam_Sheldon5644@vetan.org
Chad Harrison,cj8oOZ,OpRJo,Chicago,Chad_Harrison1798@atink.com
Nicholas Quinnell,YWtENa,pxksg,Scottsdale,Nicholas_Quinnell5755@nimogy.biz
Stella Rivers,vy3OK1,hrl9V,Oakland,Stella_Rivers4233@grannar.com
Penny Williams,MGsmPJ,T0nrs,Bakersfield,Penny_Williams7024@kideod.biz
Clint Campbell,WDZxOe,MXlaT,Bakersfield,Clint_Campbell1702@nanoff.biz
Sebastian Hardwick,eFPcgo,kXhKy,Columbus,Sebastian_Hardwick9091@womeona.net
Hank Jackson,KR5s7l,gPos9,Prague,Hank_Jackson4678@cispeto.com
Manuel Funnell,7XQn0Y,yarUX,Houston,Manuel_Funnell6932@guentu.biz
Daniel Harvey,A3TUge,tM16l,Dallas,Daniel_Harvey650@muall.tech
Joseph Oldfield,jf5qU3,GSQRI,Chicago,Joseph_Oldfield9569@hourpy.biz
Alexander Reid,gohUa2,ha8cN,Colorado Springs,Alexander_Reid6330@nickia.com
Matt Murphy,T69KpA,MBQMk,Cincinnati,Matt_Murphy9137@sveldo.biz
Erick Parsons,ImN5Jm,XPVa3,Murfreesboro,Erick_Parsons6362@vetan.org
Peter Donnelly,flzc0n,VSKp6,Oakland,Peter_Donnelly629@acrit.org
Chuck Nicholls,hdxfJT,l5TjS,Oklahoma City,Chuck_Nicholls6255@mafthy.com
Leroy Ashwell,kc89R9,1m96a,New Orleans,Leroy_Ashwell2877@deons.tech
Michael Weatcroft,EipAVR,OggEC,Santa Ana,Michael_Weatcroft5389@dionrab.com
Russel Jackson,urAMPe,62KXK,London,Russel_Jackson345@corti.com
Doug Lowe,g9kXOK,ucv4y,Glendale,Doug_Lowe4501@zorer.org
Roger Gardner,UChPzE,tHL4D,Denver,Roger_Gardner4900@mafthy.com
Alexander Jones,iZ1Rfh,PtekH,Lincoln,Alexander_Jones7210@cispeto.com
Mark Redden,JfZ5r5,1QDPq,Nashville,Mark_Redden2720@bretoux.com
Kieth Kirby,TmOUzf,RgUdl,Ontario,Kieth_Kirby4613@supunk.biz
Manuel Webster,b9ab0e,ABcRj,Louisville,Manuel_Webster2164@jiman.org
Tyler Olivier,MgEEU9,HZWbP,Paris,Tyler_Olivier5976@qater.org
Nick Norman,2UjocI,NTWNs,Bakersfield,Nick_Norman1178@gembat.biz
Gabriel Sloan,LYw9H9,SBdCu,Detroit,Gabriel_Sloan8546@elnee.tech

